datetime,dt_recv,E,N,U,EE,EN,EU,NN,NU,UU
2018-08-28 14:21:53.015000+00:00,2018-08-28 14:21:53.028000+00:00,-0.007300189562161876,-0.046589969019412605,-0.020277234874397056,0.0001955705441599256,5.5210960801727683e-05,3.450634746161963e-05,0.00020791741497877325,6.47746339796268e-05,0.0008530095303825812
2018-08-28 14:21:54.015000+00:00,2018-08-28 14:21:54.582000+00:00,-0.00943592001523529,-0.04897666843236856,-0.013186190226661135,0.00020091427991416038,5.5611892410892044e-05,3.4918467260509195e-05,0.00021479387005998908,6.633151525348358e-05,0.0008711199546652766
2018-08-28 14:21:55.016000+00:00,2018-08-28 14:21:55.028000+00:00,-0.015860513526170635,-0.05368371995484421,-0.008630903961730756,0.00019551695644916885,5.5101858335450906e-05,3.471088073195237e-05,0.0002078203008265748,6.505292152943914e-05,0.0008528886644035444
2018-08-28 14:21:56.015000+00:00,2018-08-28 14:21:56.027000+00:00,-0.01209852361908969,-0.058174933483254754,-0.007758871515890123,0.0002008615042295586,5.550150187839032e-05,3.512391861514274e-05,0.0002146967251246098,6.661428777351996e-05,0.0008709970268747256
2018-08-28 14:21:57.015000+00:00,2018-08-28 14:21:57.030000+00:00,-0.001583473333759208,-0.05025230214186967,-0.008129448426160545,0.00019536355642207128,5.48615276740532e-05,3.494406530349725e-05,0.00020754040078953067,6.541370547276046e-05,0.0008524309215944229
2018-08-28 14:21:58.016000+00:00,2018-08-28 14:21:58.027000+00:00,-0.0024889727395080354,-0.053524468459422006,-0.006640859505182461,0.00020070894821775954,5.5259885655824944e-05,3.5358008887653454e-05,0.00021441680608215576,6.697955962021383e-05,0.000870537294902497
2018-08-28 14:21:59.015000+00:00,2018-08-28 14:21:59.027000+00:00,-0.008528841555796338,-0.05233255416206185,-0.007008344343061128,0.00019533071946890856,5.478936188363507e-05,3.502111285581843e-05,0.00020750364724084701,6.553864999751536e-05,0.0008523453013684435
2018-08-28 14:22:00.016000+00:00,2018-08-28 14:22:00.030000+00:00,-0.014667912098299722,-0.04781654116779289,-0.008217586236150456,0.00020067693198837387,5.518642694590287e-05,3.5435963677474166e-05,0.00021437999074922827,6.71089748518019e-05,0.0008704496351684442
2018-08-28 14:22:01.015000+00:00,2018-08-28 14:22:01.029000+00:00,-0.0240029936387607,-0.038426100459531175,-0.01927511677211885,0.00019540820888896808,5.48686619368304e-05,3.502512065542014e-05,0.00020768300149283972,6.552571781690372e-05,0.0008526153825468105
2018-08-28 14:22:02.015000+00:00,2018-08-28 14:22:02.027000+00:00,-0.021011460073726895,-0.03887907011980431,-0.016377665335272792,0.00020075524790283666,5.5264422239337724e-05,3.544086577237103e-05,0.00021455932864992953,6.710054820747714e-05,0.0008707176838428205
2018-08-28 14:22:03.016000+00:00,2018-08-28 14:22:03.027000+00:00,-0.035896834634058516,-0.036016310109827254,-0.01574111395992464,0.00019534739271673227,5.474903811789253e-05,3.5201557824145766e-05,0.00020756896805810426,6.57779773666828e-05,0.0008524719817677372
2018-08-28 14:22:04.016000+00:00,2018-08-28 14:22:04.029000+00:00,-0.03635552816220671,-0.03594665336324439,-0.015219963033298473,0.00020069524375675583,5.514351785526934e-05,3.561821576163025e-05,0.00021444523845511195,6.735728333280718e-05,0.0008705722472291343
2018-08-28 14:22:05.016000+00:00,2018-08-28 14:22:05.034000+00:00,-0.018058057786643704,-0.031819446611772474,-0.018621273024367124,0.0001953310421727162,5.468365807391288e-05,3.539844547436e-05,0.00020752570705504149,6.603499819273666e-05,0.000852506534916793
2018-08-28 14:22:06.016000+00:00,2018-08-28 14:22:06.030000+00:00,-0.02435262358593005,-0.033924535843025294,-0.018685095310568937,0.00020067974592566034,5.5076839895748605e-05,3.581600352977636e-05,0.0002144019534224776,6.761878719351575e-05,0.0008706048075416224
2018-08-28 14:22:07.015000+00:00,2018-08-28 14:22:07.028000+00:00,-0.023500760580155627,-0.03701900438295765,-0.014191935285626027,0.00019557965804250545,5.5008664565352814e-05,3.5353272204755384e-05,0.00020768720977599572,6.545806889940019e-05,0.000851977498074803
2018-08-28 14:22:08.016000+00:00,2018-08-28 14:22:08.029000+00:00,-0.023904132418022982,-0.040537177755246366,-0.00814876441318757,0.00020106120583544853,5.569329262020766e-05,3.5593482118933476e-05,0.0002146346835056102,6.64033779879068e-05,0.0008692856063597179
2018-08-28 14:22:09.016000+00:00,2018-08-28 14:22:09.030000+00:00,-0.01794965597960448,-0.04130032728192219,-0.0073614868220489155,0.0001960012638034821,5.560894271803811e-05,3.5149352703344204e-05,0.0002081791296407342,6.477708896999616e-05,0.000851641974521959
2018-08-28 14:22:10.016000+00:00,2018-08-28 14:22:10.028000+00:00,-0.014202833935884328,-0.043875938351738884,-0.006681300112533154,0.0002013515885560892,5.599951805984247e-05,3.556870784189283e-05,0.00021505524713401033,6.636985558876871e-05,0.0008697361938842053
2018-08-28 14:22:11.022000+00:00,2018-08-28 14:22:11.037000+00:00,-0.02022046722203508,-0.051042505440631804,-0.001967037129238871,0.0001958245903594618,5.5413253304011175e-05,3.534801558922581e-05,0.00020796308540721217,6.516893871795737e-05,0.0008512836096469041
2018-08-28 14:22:12.015000+00:00,2018-08-28 14:22:12.027000+00:00,-0.016520331649152047,-0.05480127241949226,0.0003319255921331622,0.00020130737591541792,5.609509948951135e-05,3.559054417478846e-05,0.000214911180867835,6.612458793228015e-05,0.0008685880831041396
2018-08-28 14:22:13.015000+00:00,2018-08-28 14:22:13.030000+00:00,-0.0030880034187745348,-0.05445848323133021,-0.005633274073380139,0.00019573953031397424,5.535624886978018e-05,3.5377795387957385e-05,0.00020795598762030125,6.532611868244e-05,0.0008512293752121054
2018-08-28 14:22:14.015000+00:00,2018-08-28 14:22:14.026000+00:00,-0.00483991702492868,-0.059361811827879946,-0.003319027446159476,0.0002012229129234135,5.603669650520837e-05,3.562148852533114e-05,0.00021490435519049944,6.628688038732292e-05,0.0008685319899760467
2018-08-28 14:22:15.015000+00:00,2018-08-28 14:22:15.026000+00:00,-0.012664576921817508,-0.05912232716634843,-0.0021486776312164106,0.00019581581330430314,5.5615732017065645e-05,3.529707417278209e-05,0.000207763140345075,6.430460808208035e-05,0.0008494776191008326
2018-08-28 14:22:16.016000+00:00,2018-08-28 14:22:16.031000+00:00,-0.010823717927085544,-0.0571125410035919,-0.006880832912603229,0.00020138004864008423,5.630808965597347e-05,3.5638445545663054e-05,0.00021471400189338488,6.528657592063422e-05,0.0008668946185844435
2018-08-28 14:22:17.016000+00:00,2018-08-28 14:22:17.029000+00:00,-0.011263954235241284,-0.04660139310147843,-0.013953514997509117,0.00019627964310231388,5.602714413486721e-05,3.556964323650551e-05,0.00020799698173924546,6.388045257381853e-05,0.0008494677587338355
2018-08-28 14:22:18.015000+00:00,2018-08-28 14:22:18.028000+00:00,-0.016447656163821777,-0.04729134051148874,-0.014128994397778732,0.00020184449865744855,5.671806471815217e-05,3.591215642589942e-05,0.0002149481118658299,6.486752318370998e-05,0.000866882967201074
2018-08-28 14:22:19.016000+00:00,2018-08-28 14:22:19.028000+00:00,-0.027497446975027047,-0.04358637371861665,-0.01719201152529421,0.0001964691672461617,5.6058823678939824e-05,3.583926453509375e-05,0.00020806779711482815,6.401102485621636e-05,0.0008498403984230085
2018-08-28 14:22:20.015000+00:00,2018-08-28 14:22:20.028000+00:00,-0.03430939637890307,-0.04893251618663761,-0.018524368279991155,0.0002020346430206499,5.6748299705507434e-05,3.618292480476768e-05,0.00021501920229561347,6.500322131660063e-05,0.000867253780294118
2018-08-28 14:22:21.015000+00:00,2018-08-28 14:22:21.028000+00:00,-0.0350899244113318,-0.04373354116785816,-0.01708547122687796,0.00019648892221957155,5.598820637564423e-05,3.588219506082488e-05,0.00020831873083437843,6.460887807837771e-05,0.000850761220548947
2018-08-28 14:22:22.016000+00:00,2018-08-28 14:22:22.031000+00:00,-0.0313734045856192,-0.04303521859993424,-0.020332079047214673,0.00020184413618968473,5.6370959555566634e-05,3.6306953984192153e-05,0.00021519439354164262,6.622847096339832e-05,0.000868843467587611
2018-08-28 14:22:23.015000+00:00,2018-08-28 14:22:23.028000+00:00,-0.029216477585053396,-0.04934973543724559,-0.011709466425727073,0.000196279943336699,5.559225691992582e-05,3.5976021793381914e-05,0.00020846934284593504,6.579910755262795e-05,0.0008522684634118905
2018-08-28 14:22:24.016000+00:00,2018-08-28 14:22:24.029000+00:00,-0.02291382204231834,-0.04786897302595297,-0.01059366225663175,0.00020184659264461125,5.627885423088464e-05,3.632198317962435e-05,0.0002154212450376431,6.680149840251095e-05,0.0008696782247820127
2018-08-28 14:22:25.016000+00:00,2018-08-28 14:22:25.028000+00:00,-0.01403252530869189,-0.052306474096135765,-0.0014277149656123124,0.00019626666705334456,5.5556260869549644e-05,3.5972010191814705e-05,0.00020849714901912815,6.581948397382255e-05,0.0008522314362611087
2018-08-28 14:22:26.015000+00:00,2018-08-28 14:22:26.026000+00:00,-0.011382676790805443,-0.05365377818386683,-0.00011971224214034001,0.00020183395104885857,5.624139312552576e-05,3.6319097539236876e-05,0.0002154492909103156,6.682702397179481e-05,0.0008696394210254056
2018-08-28 14:22:27.016000+00:00,2018-08-28 14:22:27.029000+00:00,-0.004138505606579006,-0.05534343141054912,-0.0031078993960968193,0.00019641170629146286,5.578870879537285e-05,3.5937754438636555e-05,0.0002084729778812864,6.53718299405715e-05,0.000851329974324152
2018-08-28 14:22:28.016000+00:00,2018-08-28 14:22:28.029000+00:00,-0.0035393803093935906,-0.05391689136441646,-0.006304793611323713,0.00020175631370134478,5.618965077121001e-05,3.6336922833146446e-05,0.00021531077411466763,6.7052809984115e-05,0.0008693451230861867
2018-08-28 14:22:29.015000+00:00,2018-08-28 14:22:29.027000+00:00,-0.004816122321316733,-0.053214712344671046,-0.018684770558712475,0.00019600288605394042,5.52620285228282e-05,3.620794074719747e-05,0.00020813671067226224,6.630189678053747e-05,0.0008519608874438171
2018-08-28 14:22:30.016000+00:00,2018-08-28 14:22:30.031000+00:00,-0.00916482438079671,-0.05433774353683498,-0.017855989607997967,0.00020136131275221505,5.563952948597412e-05,3.663625037774129e-05,0.00021501198904050984,6.79393679154668e-05,0.0008700352420268368
2018-08-28 14:22:31.015000+00:00,2018-08-28 14:22:31.027000+00:00,-0.017648544372992847,-0.044864069707155424,-0.026611226667548622,0.00019556444153183517,5.46068720455623e-05,3.637893279717725e-05,0.00020799287419183174,6.758273709934223e-05,0.0008532565033308472
2018-08-28 14:22:32.015000+00:00,2018-08-28 14:22:32.030000+00:00,-0.0194521461214853,-0.04357096946912482,-0.02127671723112541,0.00020092370634913122,5.498305907682211e-05,3.680813590529059e-05,0.0002148680049639997,6.922466254052993e-05,0.0008713288577185546
2018-08-28 14:22:33.016000+00:00,2018-08-28 14:22:33.030000+00:00,-0.033852416588585364,-0.04783174486679595,-0.004954820251559772,0.00019536846458565967,5.430985477609271e-05,3.6666592362383053e-05,0.00020776507285458364,6.784857901810491e-05,0.0008532817628638269
2018-08-28 14:22:34.016000+00:00,2018-08-28 14:22:34.027000+00:00,-0.029968566271555037,-0.055934738771478254,0.0017222250127239616,0.0002007154788028421,5.470680263321669e-05,3.7068535172174065e-05,0.000214602657092225,6.95427113896036e-05,0.0008712912534584765
2018-08-28 14:22:35.016000+00:00,2018-08-28 14:22:35.028000+00:00,-0.027211568174810463,-0.05674275207190532,0.008920815948412784,0.0001953198054068437,5.430851805999316e-05,3.660551226042141e-05,0.0002077042857723267,6.795525528723875e-05,0.0008530593381462016
2018-08-28 14:22:36.016000+00:00,2018-08-28 14:22:36.030000+00:00,-0.029401371369822127,-0.055521364697934256,0.011028889925847284,0.00020066762859753407,5.470411728220251e-05,3.7008355276199514e-05,0.00021454181973609672,6.965377317716951e-05,0.0008710669640956572
2018-08-28 14:22:37.016000+00:00,2018-08-28 14:22:37.028000+00:00,-0.026992443186856528,-0.05433416121258697,0.007250286983141424,0.00019526876885270922,5.428754067105472e-05,3.6630192497030746e-05,0.00020759923673429573,6.817726369397512e-05,0.0008529021501073308
2018-08-28 14:22:38.016000+00:00,2018-08-28 14:22:38.027000+00:00,-0.027105484485969555,-0.05243935322228278,0.010072423235304391,0.0002006174185378028,5.4681874378792725e-05,3.703390226838073e-05,0.0002144368998023234,6.987992498280911e-05,0.0008709081801738556
2018-08-28 14:22:39.016000+00:00,2018-08-28 14:22:39.029000+00:00,-0.027882651376941747,-0.04222905851230727,-0.007125251870236698,0.00019507224501988352,5.459636875663891e-05,3.706799182516784e-05,0.00020796064129583166,6.710719872014798e-05,0.0008532254279268714
2018-08-28 14:22:40.016000+00:00,2018-08-28 14:22:40.029000+00:00,-0.023365393410940877,-0.043788874138327064,-0.011514099585363338,0.00020009740186532904,5.515288526174938e-05,3.807894429363337e-05,0.00021489562043447462,6.795064140339025e-05,0.0008713172669881361
2018-08-28 14:22:41.016000+00:00,2018-08-28 14:22:41.027000+00:00,-0.021446535241229928,-0.046372952692339306,-0.008438969426792488,0.0001945411272347051,5.5058140394927245e-05,3.824663357422577e-05,0.00020841595160529954,6.531121317994708e-05,0.0008537832821464367
2018-08-28 14:22:42.016000+00:00,2018-08-28 14:22:42.027000+00:00,-0.01958365947903188,-0.04728237825426397,-0.012309758056209995,0.00019956690935610063,5.561292614244224e-05,3.925860850043295e-05,0.00021535099576238694,6.615963720779769e-05,0.0008718719861915486
2018-08-28 14:22:43.015000+00:00,2018-08-28 14:22:43.029000+00:00,-0.00472537839411522,-0.04807593192150472,-0.015196120651853742,0.0001938120051320784,5.524228900255213e-05,3.9596836940083e-05,0.00020846962930610741,6.379279507214307e-05,0.0008537457700135571
2018-08-28 14:22:44.016000+00:00,2018-08-28 14:22:44.034000+00:00,-0.008731010046614467,-0.04582422492864254,-0.018167636551134392,0.00019883840960242805,5.5795340701858595e-05,4.060982963476683e-05,0.00021540477815409228,6.464621550534351e-05,0.0008718313896085503
2018-08-28 14:22:45.015000+00:00,2018-08-28 14:22:45.027000+00:00,-0.00963000274495038,-0.04340528403665336,-0.025171456340888847,0.00019368682471971967,5.505403380559247e-05,3.977647011369173e-05,0.0002082904818133412,6.404514178838018e-05,0.0008535423815963641
2018-08-28 14:22:46.016000+00:00,2018-08-28 14:22:46.029000+00:00,-0.0054727164255984236,-0.040870276947798836,-0.029552184724463818,0.0001987138311744981,5.5605360542973725e-05,4.079047757204728e-05,0.0002152256485793773,6.490350406963233e-05,0.0008716248492556277
2018-08-28 14:22:47.016000+00:00,2018-08-28 14:22:47.029000+00:00,-0.011400457607993898,-0.03803923471258422,-0.03230552363376609,0.00019370776754605283,5.506151364097107e-05,3.978227364162445e-05,0.00020837809020260402,6.405821857081409e-05,0.0008536013520288774
2018-08-28 14:22:48.016000+00:00,2018-08-28 14:22:48.028000+00:00,-0.011068279900599692,-0.03556959982594485,-0.03901410322705866,0.00019873539927678128,5.561111146893918e-05,4.079730226079072e-05,0.0002153132938558158,6.49215520228639e-05,0.0008716807128032564
2018-08-28 14:22:49.016000+00:00,2018-08-28 14:22:49.029000+00:00,-0.00837616127688154,-0.04195302499543515,-0.027600486750865794,0.0001938637642002217,5.517889376830098e-05,3.9817123759590075e-05,0.00020838461764309107,6.390601867646789e-05,0.0008536329213795373
2018-08-28 14:22:50.016000+00:00,2018-08-28 14:22:50.030000+00:00,-0.008052638838145169,-0.043158977931239975,-0.027257080912291173,0.00019904843523000233,5.589936482697564e-05,4.0626771698685924e-05,0.00021536267861930222,6.431470848442081e-05,0.0008716159660644607
2018-08-28 14:22:51.015000+00:00,2018-08-28 14:22:51.029000+00:00,-0.011743699768512939,-0.04673159730028359,-0.01682247696302643,0.00019471398194346575,5.5276828322698474e-05,3.9436201262312595e-05,0.0002085762889904239,6.307229855404033e-05,0.0008534543392117984
2018-08-28 14:22:52.016000+00:00,2018-08-28 14:22:52.028000+00:00,-0.016136195042660884,-0.04975223923554024,-0.010388875330365439,0.0002004428000277538,5.5782995393096645e-05,4.023080139712779e-05,0.00021563836857297594,6.34927110375085e-05,0.0008714346886562193
2018-08-28 14:22:53.015000+00:00,2018-08-28 14:22:53.029000+00:00,-0.015183338098976474,-0.04690869671570686,-0.016089262581425415,0.0001960680818574892,5.510382521968044e-05,3.909121975393195e-05,0.00020876395999633033,6.232205882818382e-05,0.0008531746267957945
2018-08-28 14:22:54.016000+00:00,2018-08-28 14:22:54.032000+00:00,-0.014352136056341067,-0.044845447371636926,-0.015579238484161706,0.00020179773801971775,5.560839679297931e-05,3.98868938375571e-05,0.00021582677184033887,6.274781206660297e-05,0.0008711518633978039
2018-08-28 14:22:55.016000+00:00,2018-08-28 14:22:55.029000+00:00,-0.010953724500972652,-0.04178642503143873,-0.019106291775078842,0.0001971348478385674,5.461281417415596e-05,3.91816764644729e-05,0.0002088982976028597,6.251010870216716e-05,0.0008531725428153434
2018-08-28 14:22:56.015000+00:00,2018-08-28 14:22:56.028000+00:00,-0.0071964205115988954,-0.046667365504317916,-0.016459166804366675,0.00020285218159260177,5.51394486667374e-05,3.9947106798233454e-05,0.00021591938617654356,6.299745243351851e-05,0.0008710723048860379
2018-08-28 14:22:57.016000+00:00,2018-08-28 14:22:57.028000+00:00,0.008411425781015431,-0.0533917383627834,-0.0075779392654703355,0.0001971352246879626,5.465756483636534e-05,3.9214080789600495e-05,0.00020887173273673572,6.274146044996163e-05,0.0008531639808585067
2018-08-28 14:22:58.016000+00:00,2018-08-28 14:22:58.029000+00:00,0.011085392574533585,-0.05518131377062358,-0.0027979793141426137,0.00020285341981145894,5.518257531616335e-05,3.9980608709629095e-05,0.00021589364201345064,6.323405422432854e-05,0.0008710608093919984
2018-08-28 14:22:59.015000+00:00,2018-08-28 14:22:59.026000+00:00,0.011116144560508018,-0.06362610947905573,0.008869806874420027,0.0001971709361065203,5.4719721267756996e-05,3.9199437158336754e-05,0.00020895781697920208,6.2818940464405e-05,0.0008532623847787183
2018-08-28 14:23:00.016000+00:00,2018-08-28 14:23:00.028000+00:00,0.006896136230867594,-0.06228164764582865,0.01505803095965813,0.0002029031151168269,5.5219496229002816e-05,3.9998290690252406e-05,0.00021602291506281666,6.326074435520544e-05,0.0008712304467184752
2018-08-28 14:23:01.016000+00:00,2018-08-28 14:23:01.027000+00:00,-0.00409595593421342,-0.05318612446446647,0.002982441124914994,0.00019721190375042417,5.469191789128411e-05,3.9350615991112455e-05,0.00020905289485594118,6.29158139619403e-05,0.0008534802709402597
2018-08-28 14:23:02.015000+00:00,2018-08-28 14:23:02.028000+00:00,-0.005294194351738791,-0.05955851667076576,0.005609024346429955,0.00020294494705718876,5.519010985256219e-05,4.015054532763835e-05,0.0002161187196770995,6.336293688519716e-05,0.0008714452575506616
2018-08-28 14:23:03.016000+00:00,2018-08-28 14:23:03.029000+00:00,-0.02814920485324668,-0.05083084944424535,-0.010316077862636608,0.0001971710934120053,5.4557640634835585e-05,3.9534809198726965e-05,0.00020900215184787403,6.308266058831344e-05,0.0008534624811957199
2018-08-28 14:23:04.016000+00:00,2018-08-28 14:23:04.031000+00:00,-0.03169777796693062,-0.0495177566433337,-0.016746337103258235,0.00020289181456187766,5.507782852816985e-05,4.0304648558506175e-05,0.00021602636852544548,6.359097975929825e-05,0.0008713505763886977
2018-08-28 14:23:05.016000+00:00,2018-08-28 14:23:05.028000+00:00,-0.022715982412020073,-0.03937909527840314,-0.028465717608423195,0.00019720331086231618,5.4628896087866804e-05,3.966660539198789e-05,0.00020899492834753833,6.342700724703003e-05,0.0008535920285854698
2018-08-28 14:23:06.016000+00:00,2018-08-28 14:23:06.027000+00:00,-0.03286057898310376,-0.03810382072843842,-0.02859515646209989,0.0002029248642361372,5.5147459182861885e-05,4.043752526543536e-05,0.00021601993946972922,6.394060813940202e-05,0.0008714772456451701
2018-08-28 14:23:07.016000+00:00,2018-08-28 14:23:07.027000+00:00,-0.032369247966429204,-0.03855270200051776,-0.021533905464477546,0.00019708859892759542,5.451027582257736e-05,3.983816571525564e-05,0.0002087314423527429,6.387069215679113e-05,0.0008533133239577472
2018-08-28 14:23:08.016000+00:00,2018-08-28 14:23:08.027000+00:00,-0.03661630668288742,-0.03985172132260069,-0.013975680015841421,0.00020281099033827627,5.50272031966376e-05,4.061017065149102e-05,0.00021575731948824547,6.438966978111716e-05,0.0008711958765408709
2018-08-28 14:23:09.016000+00:00,2018-08-28 14:23:09.026000+00:00,-0.013700633631792747,-0.052493330374822594,-0.006600076804069915,0.00019705272357748604,5.441837017325758e-05,3.998480618292699e-05,0.00020865985321099706,6.408016449475619e-05,0.0008533041111933014
2018-08-28 14:23:10.016000+00:00,2018-08-28 14:23:10.027000+00:00,-0.019884212612201742,-0.047559014663200117,-0.007743136768073363,0.0002027759645662789,5.493365499624095e-05,4.07578584730762e-05,0.00021568658763966998,6.46045732312685e-05,0.000871184083790229
2018-08-28 14:23:11.016000+00:00,2018-08-28 14:23:11.027000+00:00,-0.0025858582760112624,-0.046324203915675904,-0.009465556828700785,0.00019678235617295528,5.410406287098259e-05,4.046350876546164e-05,0.0002083918670054577,6.460352955180154e-05,0.0008531467959439641
2018-08-28 14:23:12.016000+00:00,2018-08-28 14:23:12.026000+00:00,-0.006103894646811804,-0.04702339710100914,-0.008958712680281374,0.00020223161384325277,5.419506680491703e-05,4.13492694257258e-05,0.00021529466263040344,6.604015332014056e-05,0.0008720078441139759
2018-08-28 14:23:13.016000+00:00,2018-08-28 14:23:13.027000+00:00,0.0005545700383458065,-0.048314306380649194,-0.02067875797714267,0.00019651378317365434,5.365064237448535e-05,4.067959643373387e-05,0.0002082871137051991,6.564838817640461e-05,0.0008542145978458822
2018-08-28 14:23:14.016000+00:00,2018-08-28 14:23:14.033000+00:00,0.006498182133742387,-0.0532500485614928,-0.023769447037901684,0.00020223868848589773,5.4162647220032906e-05,4.145477871028214e-05,0.00021531555031686217,6.618357465517331e-05,0.0008720892830835591
2018-08-28 14:23:15.015000+00:00,2018-08-28 14:23:15.029000+00:00,0.0013253434065326856,-0.05019055360187663,-0.016107092837933504,0.00019654469552130057,5.355458672690309e-05,4.076268707328221e-05,0.00020860875773590174,6.652073592912063e-05,0.000855585308372707
2018-08-28 14:23:16.016000+00:00,2018-08-28 14:23:16.027000+00:00,-0.0032902099312566435,-0.051308028116394525,-0.02207549212334321,0.00020199622760029036,5.364269813586992e-05,4.164983789445973e-05,0.00021551225634665024,6.796624583123837e-05,0.0008744402650383648
2018-08-28 14:23:17.016000+00:00,2018-08-28 14:23:17.027000+00:00,-0.01658376192855692,-0.056875083417621757,-0.015948704345610756,0.00019661625608842487,5.3440946955740625e-05,4.0779858386901066e-05,0.0002088355126486928,6.737455596278052e-05,0.0008572081076374102
2018-08-28 14:23:18.016000+00:00,2018-08-28 14:23:18.026000+00:00,-0.024926975507004703,-0.06122806665943942,-0.010308540869186606,0.00020206892526725246,5.3527595015910245e-05,4.166767196322972e-05,0.00021573937380551375,6.88245384947954e-05,0.0008760600803618046
2018-08-28 14:23:19.016000+00:00,2018-08-28 14:23:19.026000+00:00,-0.024996801024891383,-0.05830460664105675,-0.005384777741016429,0.00019613026990351152,5.264150695556766e-05,4.106653951640825e-05,0.00020870967238972757,6.925914117713932e-05,0.0008594139799792345
2018-08-28 14:23:20.015000+00:00,2018-08-28 14:23:20.029000+00:00,-0.02645525069382511,-0.059866892959455464,0.00010863186406649683,0.00020158405594330247,5.272671269963774e-05,4.1955057842865115e-05,0.0002156138622046803,7.071355033820824e-05,0.0008782629064738586
2018-08-28 14:23:21.015000+00:00,2018-08-28 14:23:21.025000+00:00,-0.009190421994154617,-0.05760701800271718,0.00041243094582837925,0.00019585185709005112,5.224584603288285e-05,4.151788068605257e-05,0.00020826011254571503,6.982134183512338e-05,0.0008593851948371716
2018-08-28 14:23:22.016000+00:00,2018-08-28 14:23:22.026000+00:00,-0.014889454259142045,-0.06147147283397193,0.0042005937694451975,0.00020130677445905358,5.232959842022999e-05,4.240707600679602e-05,0.00021516464760505644,7.128019897044625e-05,0.000878231102255181
2018-08-28 14:23:23.015000+00:00,2018-08-28 14:23:23.025000+00:00,0.008865679117278728,-0.04893161819776499,-0.002492068779123068,0.00019582320995677405,5.216396084840311e-05,4.168420851954297e-05,0.0002082034236053825,7.004308928205711e-05,0.0008594101695664137
2018-08-28 14:23:24.016000+00:00,2018-08-28 14:23:24.026000+00:00,0.004508308632240578,-0.04807541812159252,-0.009749739402259129,0.00020127925865498814,5.224626172720959e-05,4.2574079537641856e-05,0.00021510827577784385,7.150638421782351e-05,0.0008782530860390777
2018-08-28 14:23:25.016000+00:00,2018-08-28 14:23:25.026000+00:00,-0.01573132587766044,-0.04334116557190092,-0.019265046434108157,0.0001958340231339742,5.2135189883362094e-05,4.182867681341799e-05,0.0002082199867338708,7.022733781542642e-05,0.0008595342786982525
2018-08-28 14:23:26.015000+00:00,2018-08-28 14:23:26.025000+00:00,-0.011572030527867094,-0.042113349226540614,-0.021854783693118218,0.00020129119446377777,5.2216044106906884e-05,4.271923437567358e-05,0.00021512518702051516,7.169508481502716e-05,0.0008783741819221298
2018-08-28 14:23:27.016000+00:00,2018-08-28 14:23:27.029000+00:00,-0.027674575877391656,-0.02999668663941242,-0.025637654418284632,0.00019587994856249763,5.231076192954554e-05,4.209101215151188e-05,0.00020818763749432385,6.970764070000018e-05,0.0008584496524446379
2018-08-28 14:23:28.016000+00:00,2018-08-28 14:23:28.026000+00:00,-0.03495062548379754,-0.032242725556461876,-0.02396196780587989,0.0002016106697866536,5.281121627823436e-05,4.287349158167564e-05,0.00021522176521572076,7.028065634397048e-05,0.000876306369610307
2018-08-28 14:23:29.015000+00:00,2018-08-28 14:23:29.041000+00:00,-0.03592294101315325,-0.034610027803894966,-0.016201006374868744,0.00019643576713497201,5.312469435882268e-05,4.1985155450372245e-05,0.0002084651847476728,6.805423385555391e-05,0.000856607722478167
2018-08-28 14:23:30.016000+00:00,2018-08-28 14:23:30.028000+00:00,-0.04422833807494047,-0.03286384120401498,-0.01692818158422222,0.00020216730017747034,5.362351918799854e-05,4.276870496612716e-05,0.00021550009529092904,6.863259513252329e-05,0.0008744618554733987
2018-08-28 14:23:31.016000+00:00,2018-08-28 14:23:31.027000+00:00,-0.03581618493861605,-0.0433203907561784,-0.0008272464631803797,0.00019701819834258102,5.396519176512384e-05,4.197205914772544e-05,0.00020876807676290524,6.650270269748204e-05,0.0008548747501932732
2018-08-28 14:23:32.015000+00:00,2018-08-28 14:23:32.029000+00:00,-0.038995487668612064,-0.04433121505357092,-0.002814646841969432,0.0002026682937601766,5.4451780626763233e-05,4.2658205828445756e-05,0.00021580239924180906,6.707382932356903e-05,0.0008726085499445944
2018-08-28 14:23:33.016000+00:00,2018-08-28 14:23:33.027000+00:00,-0.006288067179553493,-0.04393077838354606,-0.010676160011415619,0.0001971391272557988,5.4102955733996154e-05,4.148093773666706e-05,0.00020933750698803871,6.696452295576537e-05,0.0008561871129401411
2018-08-28 14:23:34.016000+00:00,2018-08-28 14:23:34.028000+00:00,-0.00227342228771287,-0.04747698919333486,-0.007469612367211574,0.00020252489932139745,5.4169200760793165e-05,4.227346448909246e-05,0.00021624289559217015,6.84383104586952e-05,0.0008748814617814943
2018-08-28 14:23:35.016000+00:00,2018-08-28 14:23:35.027000+00:00,0.005146115595955781,-0.04746534231201288,-0.005144740285564844,0.00019646265662592158,5.3229520189261886e-05,4.1599540365351605e-05,0.00020911833063872554,6.887075555561981e-05,0.0008580087855968038
2018-08-28 14:23:36.016000+00:00,2018-08-28 14:23:36.028000+00:00,0.0020452448758349964,-0.05400318738050516,0.0011654108814472958,0.0002019892214031241,5.34538991344297e-05,4.2263685458709634e-05,0.00021620629978587596,7.020163185600517e-05,0.0008768193745425832
2018-08-28 14:23:37.016000+00:00,2018-08-28 14:23:37.030000+00:00,0.0061550582840241026,-0.05102805699494567,0.0018635568643934584,0.00019622946080512463,5.286794179232569e-05,4.165043855619801e-05,0.00020908396542788774,6.983268419632051e-05,0.000859172104322236
2018-08-28 14:23:38.016000+00:00,2018-08-28 14:23:38.027000+00:00,0.00579040275452755,-0.05005384194793978,-0.001568658983629189,0.0002018344988187043,5.327429215582688e-05,4.2353860239271844e-05,0.00021600098162998725,7.044272131830184e-05,0.000876894081329094
2018-08-28 14:23:39.015000+00:00,2018-08-28 14:23:39.027000+00:00,-0.015374695145408917,-0.041766522004198794,-0.00649443908196989,0.00019643391101531116,5.323872732523787e-05,4.17677954454842e-05,0.0002087867779142153,6.845321800756762e-05,0.0008572139529010967
2018-08-28 14:23:40.016000+00:00,2018-08-28 14:23:40.028000+00:00,-0.018986226283431048,-0.04234915576467939,-0.008584951350804004,0.0002020398919821054,5.36436193029711e-05,4.24722383864567e-05,0.0002157048175289254,6.906870208995338e-05,0.0008749334105693509
2018-08-28 14:23:41.016000+00:00,2018-08-28 14:23:41.031000+00:00,-0.021323707983236406,-0.03675432594602084,-0.016472733993625362,0.00019672795980978282,5.374595927394807e-05,4.1669005546526383e-05,0.00020868651864423322,6.681080122223617e-05,0.0008551224190078454
2018-08-28 14:23:42.016000+00:00,2018-08-28 14:23:42.026000+00:00,-0.020262214282071825,-0.03485710910798499,-0.021821053448722122,0.00020233483129275672,5.414939037493348e-05,4.237445024249511e-05,0.00021560555379062515,6.743172015703271e-05,0.0008728393794477985
2018-08-28 14:23:43.016000+00:00,2018-08-28 14:23:43.027000+00:00,-0.0287023168076467,-0.03577270539609032,-0.02678314371988346,0.00019659526347497704,5.347343854658935e-05,4.191749732623855e-05,0.00020883035504861778,6.786152450265946e-05,0.0008564023830649882
2018-08-28 14:23:44.016000+00:00,2018-08-28 14:23:44.036000+00:00,-0.027031191797797928,-0.034178379768868006,-0.027657395988164087,0.0002020054788218416,5.356299461462181e-05,4.270186972496422e-05,0.00021578292577650692,6.933709665497226e-05,0.0008750874178023258
2018-08-28 14:23:45.015000+00:00,2018-08-28 14:23:45.027000+00:00,-0.008025152565773692,-0.04120852549365786,-0.024673242887158095,0.00019623261440720617,5.286645015315579e-05,4.2070470061052455e-05,0.00020900002538940318,6.956261131406681e-05,0.0008584309985865408
2018-08-28 14:23:46.016000+00:00,2018-08-28 14:23:46.027000+00:00,-0.005537676628729282,-0.0420055532705743,-0.02371501825825625,0.00020164391759517166,5.295464855380504e-05,4.285552356821768e-05,0.00021595297940869376,7.104266045904721e-05,0.0008771130196883617
2018-08-28 14:23:47.016000+00:00,2018-08-28 14:23:47.029000+00:00,-0.014165198381937354,-0.052014620538798295,-0.0070136369728651254,0.00019571655833438943,5.2041564049828714e-05,4.2366186039449505e-05,0.0002088510032003346,7.147814436467699e-05,0.0008601338903386827
2018-08-28 14:23:48.015000+00:00,2018-08-28 14:23:48.029000+00:00,-0.020928737541707473,-0.052065517677374364,-0.004563896040078005,0.0002011289755819733,5.2128404126219766e-05,4.315193174145806e-05,0.00021580433930867295,7.296267107984825e-05,0.0008788129018926537
2018-08-28 14:23:49.016000+00:00,2018-08-28 14:23:49.026000+00:00,-0.022692573873168715,-0.05786380213347254,0.012225871791553024,0.00019597072805903093,5.2381957462067406e-05,4.245251996375096e-05,0.00020891217477552333,7.082608566194186e-05,0.000859459960743795
2018-08-28 14:23:50.015000+00:00,2018-08-28 14:23:50.028000+00:00,-0.022981261933939706,-0.06391276937145711,0.01711799510974718,0.0002015812109911115,5.277949654435885e-05,4.316196659150836e-05,0.00021583522192218326,7.146876811764684e-05,0.0008771669403241064
2018-08-28 14:23:51.015000+00:00,2018-08-28 14:23:51.027000+00:00,-0.027096056252600552,-0.05893280134788476,0.01749204874178564,0.00019636348522791806,5.2966979880199477e-05,4.241044292226605e-05,0.00020886012747766758,6.928057689664809e-05,0.0008576036980055598
2018-08-28 14:23:52.016000+00:00,2018-08-28 14:23:52.030000+00:00,-0.03145955660224738,-0.062422655095770725,0.021136668733695827,0.00020197484115528312,5.336303508242038e-05,4.312088256925415e-05,0.00021578416202546656,6.99286872002479e-05,0.0008753081769051778
2018-08-28 14:23:53.015000+00:00,2018-08-28 14:23:53.028000+00:00,-0.019566530089051116,-0.05740296796405093,0.009880221189230834,0.00019683063166933804,5.36436976770916e-05,4.239306883004266e-05,0.0002089282274892759,6.774615442379877e-05,0.0008559782802712833
2018-08-28 14:23:54.016000+00:00,2018-08-28 14:23:54.027000+00:00,-0.02332683113709826,-0.05301958689002359,0.005761312557684584,0.00020244291879964848,5.403827650033647e-05,4.3104496232494385e-05,0.00021585324266702383,6.839971054958425e-05,0.0008736803234690583
2018-08-28 14:23:55.016000+00:00,2018-08-28 14:23:55.028000+00:00,-0.021176510734138548,-0.03639532971474801,-0.021445034691093018,0.00019680035098797855,5.3573475640994286e-05,4.246052788792589e-05,0.00020890757368367832,6.78500607430517e-05,0.0008559537485258659
2018-08-28 14:23:56.015000+00:00,2018-08-28 14:23:56.025000+00:00,-0.013758630496023883,-0.04014923016887573,-0.022876270812641736,0.00020241352863446875,5.396658412984936e-05,4.3172963682115375e-05,0.0002158335519531047,6.850903998916228e-05,0.0008736533269353434
2018-08-28 14:23:57.015000+00:00,2018-08-28 14:23:57.041000+00:00,-0.02086129962201554,-0.0470579076711973,-0.021402394762587998,0.00019678081591145108,5.351533251006778e-05,4.253208102474948e-05,0.0002088989918837205,6.795923919204066e-05,0.0008559513936918629
2018-08-28 14:23:58.016000+00:00,2018-08-28 14:23:58.029000+00:00,-0.023078290116022984,-0.04118192241952125,-0.02419489095320719,0.0002023948461053345,5.390694963183535e-05,4.324548321569955e-05,0.00021582594792705475,6.862366019035575e-05,0.0008736485305995997
2018-08-28 14:23:59.015000+00:00,2018-08-28 14:23:59.026000+00:00,-0.02341612659197216,-0.040971609749784,-0.028865759356300376,0.00019660408965024214,5.328741304684385e-05,4.2963588764991705e-05,0.000208710388311041,6.844511143159278e-05,0.0008559722505884658
2018-08-28 14:24:00.016000+00:00,2018-08-28 14:24:00.026000+00:00,-0.019851640257219052,-0.04331517049549327,-0.02776378225972313,0.00020200808878633174,5.341877473974029e-05,4.3865011069108765e-05,0.00021548144875789096,6.956600309360525e-05,0.0008738067617699036
2018-08-28 14:24:01.015000+00:00,2018-08-28 14:24:01.026000+00:00,-0.031519951129971566,-0.0413737179559466,-0.02137458713384116,0.00019615888562272014,5.2695219777706304e-05,4.3489382079274296e-05,0.00020835208877518954,6.955411730462949e-05,0.000856302031103495
2018-08-28 14:24:02.015000+00:00,2018-08-28 14:24:02.041000+00:00,-0.02965256386232977,-0.043976122259148626,-0.019401393474830143,0.0002015639348425497,5.2825192790098505e-05,4.439154117683372e-05,0.00021512392001306628,7.068005896423328e-05,0.0008741341102297265
2018-08-28 14:24:03.015000+00:00,2018-08-28 14:24:03.026000+00:00,-0.03486663779106333,-0.048865775187235484,-0.015394296514488846,0.00019590134123204472,5.244595505737605e-05,4.382617440108118e-05,0.000208409243642221,7.014817405707438e-05,0.0008562251193305469
2018-08-28 14:24:04.015000+00:00,2018-08-28 14:24:04.027000+00:00,-0.031405134292341694,-0.04891909492629541,-0.014179917700560565,0.0002016584597744208,5.305608569275083e-05,4.4499609583583706e-05,0.00021569300902887778,7.076073293883154e-05,0.0008739280376006543
2018-08-28 14:24:05.015000+00:00,2018-08-28 14:24:05.029000+00:00,-0.03823326839678036,-0.05048205537081416,-0.0005720569926188912,0.00019662204690166582,5.3360576425953767e-05,4.343402400385429e-05,0.00020955783577588966,6.946244336398388e-05,0.0008565078460627195
2018-08-28 14:24:06.016000+00:00,2018-08-28 14:24:06.027000+00:00,-0.03756046208196958,-0.05299998142877507,-0.0015469092161596726,0.00020237974070975794,5.39686986185582e-05,4.410845076629794e-05,0.00021684174991955149,7.008048261435249e-05,0.0008742083522879391
2018-08-28 14:24:07.015000+00:00,2018-08-28 14:24:07.026000+00:00,-0.036152945509638684,-0.051844802810681885,-0.004182374962251517,0.00019731167529532986,5.427209475896982e-05,4.304345322737795e-05,0.00021057772142099931,6.85297955541621e-05,0.0008562869929518077
2018-08-28 14:24:08.015000+00:00,2018-08-28 14:24:08.026000+00:00,-0.03512849197389891,-0.05447750391396747,-0.001243774086989436,0.0002030699443691381,5.487822916390487e-05,4.371885707539204e-05,0.00021786173452223098,6.915329716293377e-05,0.000873985136931575
2018-08-28 14:24:09.015000+00:00,2018-08-28 14:24:09.025000+00:00,-0.02420669841733452,-0.05536831134280141,-0.00011099842107456862,0.0001975257271837932,5.446979360165295e-05,4.285233572191239e-05,0.0002108545613366194,6.834915300663546e-05,0.0008566066137221139
2018-08-28 14:24:10.015000+00:00,2018-08-28 14:24:10.027000+00:00,-0.0238480841895232,-0.05137703018593157,-0.003934694067531774,0.00020328453953417388,5.507392455985485e-05,4.3528738269435095e-05,0.00021813868544018377,6.897812265619708e-05,0.0008743022989854876
2018-08-28 14:24:11.016000+00:00,2018-08-28 14:24:11.028000+00:00,-0.024299952388606945,-0.05355727488426551,-0.006307103984921906,0.00019759905667754462,5.454221867228672e-05,4.282237213951723e-05,0.000211035035197525,6.831108279222814e-05,0.0008567979243504621
2018-08-28 14:24:12.015000+00:00,2018-08-28 14:24:12.027000+00:00,-0.026291393311915302,-0.05356554059737568,-0.005185254123481937,0.0002033584325433722,5.51443401532466e-05,4.349972086403712e-05,0.00021831929123950985,6.894552032511302e-05,0.000874491284345463
2018-08-28 14:24:13.016000+00:00,2018-08-28 14:24:13.027000+00:00,-0.023219754024254913,-0.04553877335195456,-0.009026441039599323,0.00019764797923148156,5.4560045867186086e-05,4.298154222938299e-05,0.0002111143146331347,6.851150412370588e-05,0.0008570759245226001
2018-08-28 14:24:14.016000+00:00,2018-08-28 14:24:14.026000+00:00,-0.023643968514349873,-0.04683761525160863,-0.009170126527345553,0.00020340792459239905,5.516017824672661e-05,4.3659890212281206e-05,0.00021839862852129593,6.91513914855575e-05,0.0008747668818426767
2018-08-28 14:24:15.015000+00:00,2018-08-28 14:24:15.029000+00:00,-0.031114892594192475,-0.04750452695148254,-0.010730435960044249,0.000197521012418774,5.436093144000617e-05,4.3046530307010904e-05,0.0002109141702172795,6.863827083961841e-05,0.0008567912732349623
2018-08-28 14:24:16.016000+00:00,2018-08-28 14:24:16.027000+00:00,-0.029775944034484806,-0.04423780687720995,-0.012508297820384845,0.0002032815475136558,5.4959040531423094e-05,4.3725844783913605e-05,0.00021819863866404143,6.928363527785182e-05,0.0008744798855517988
2018-08-28 14:24:17.015000+00:00,2018-08-28 14:24:17.034000+00:00,-0.026092866949377923,-0.04746531618533161,-0.01000876151012621,0.00019756496007233886,5.438646163753294e-05,4.311072222163952e-05,0.00021102159488304846,6.872099047929166e-05,0.0008569751479386596
2018-08-28 14:24:18.015000+00:00,2018-08-28 14:24:18.028000+00:00,-0.027680248419551415,-0.04690948301474149,-0.001761589251594902,0.0002034632319467612,5.520033036709845e-05,4.374855618460795e-05,0.00021865181899747405,6.930435682450599e-05,0.0008746745672647692
2018-08-28 14:24:19.016000+00:00,2018-08-28 14:24:19.026000+00:00,-0.026040240417329184,-0.0524778527279286,0.009804630918722721,0.00019745000537754422,5.413444220707415e-05,4.334602596169819e-05,0.0002111802778747484,6.974334935527636e-05,0.0008582901028627965
2018-08-28 14:24:20.015000+00:00,2018-08-28 14:24:20.026000+00:00,-0.03367809256875551,-0.053929494161857376,0.010904459413568768,0.00020288014759602092,5.419945778076359e-05,4.4142473426105365e-05,0.00021813931468983832,7.129924889733903e-05,0.0008769212997292004
2018-08-28 14:24:21.015000+00:00,2018-08-28 14:24:21.026000+00:00,-0.027687191827716864,-0.0576481559553343,0.010294555671698156,0.00019705789464229383,5.357494363461299e-05,4.3762398200561695e-05,0.00021098920430913674,7.097057752610122e-05,0.0008591047499272809
2018-08-28 14:24:22.016000+00:00,2018-08-28 14:24:22.026000+00:00,-0.022942710486313016,-0.05848706701696406,0.01604381853640634,0.0002029565875271433,5.4383615195629645e-05,4.440222622154489e-05,0.000218617728545141,7.156496322757705e-05,0.0008767995109399715
2018-08-28 14:24:23.015000+00:00,2018-08-28 14:24:23.027000+00:00,-0.026427087443124046,-0.05369222498878585,0.0010032302699429022,0.000197192794661079,5.373085196027989e-05,4.398243679216518e-05,0.00021129131492195243,7.123493685119188e-05,0.0008593544150714763
2018-08-28 14:24:24.016000+00:00,2018-08-28 14:24:24.029000+00:00,-0.019914869269420887,-0.048873872408278146,-0.0029487337565281477,0.00020309175960503702,5.453703281948469e-05,4.462337142005577e-05,0.00021891914039291936,7.183496710811294e-05,0.0008770470125491852
2018-08-28 14:24:25.016000+00:00,2018-08-28 14:24:25.027000+00:00,-0.01493903615546513,-0.04579953955384093,-0.019715727045827386,0.0001980883830926641,5.5123377275823864e-05,4.3848760292471454e-05,0.00021254994420622831,6.954911242185977e-05,0.0008575345712637327
2018-08-28 14:24:26.015000+00:00,2018-08-28 14:24:26.026000+00:00,-0.01607740766490533,-0.046250883188268616,-0.020442478222325415,0.00020398764915787823,5.592706295129649e-05,4.4490787048531493e-05,0.0002201771201219947,7.015486662918276e-05,0.000875225043349797
2018-08-28 14:24:27.016000+00:00,2018-08-28 14:24:27.028000+00:00,-0.027501866271242955,-0.045449862896804374,-0.016377945643738703,0.00019822138172775878,5.5216181360522846e-05,4.3652469982078274e-05,0.0002126874222790059,6.938149185639988e-05,0.0008576610416994598
2018-08-28 14:24:28.015000+00:00,2018-08-28 14:24:28.027000+00:00,-0.027977414988792183,-0.04160724640045697,-0.023475151138836022,0.00020412093444598068,5.60173922421634e-05,4.42956100614516e-05,0.00022031385844417022,6.999294278492289e-05,0.0008753494057460382
2018-08-28 14:24:29.015000+00:00,2018-08-28 14:24:29.028000+00:00,-0.03396693108408459,-0.047846308264507295,-0.02097484170411051,0.00019799889496471183,5.495013589903443e-05,4.413400860230697e-05,0.00021247063734552518,6.991700521864389e-05,0.0008576051408245966
2018-08-28 14:24:30.016000+00:00,2018-08-28 14:24:30.029000+00:00,-0.027487228916393148,-0.048022506242752706,-0.02049911289586348,0.0002037691722990586,5.537660637287729e-05,4.46067466816428e-05,0.00021983526552782617,7.113442803563302e-05,0.0008765421034984905
2018-08-28 14:24:31.015000+00:00,2018-08-28 14:24:31.026000+00:00,-0.02948654094088396,-0.050693569470654634,-0.008415292916781947,0.00019774765362060316,5.4160555151826286e-05,4.402006840465488e-05,0.00021193073890523708,7.140974994538816e-05,0.0008603471976759995
2018-08-28 14:24:32.016000+00:00,2018-08-28 14:24:32.026000+00:00,-0.02950794148140862,-0.05520887859103856,-0.0067508414780622986,0.0002035185055912067,5.45848508709118e-05,4.4493646832835526e-05,0.00021929463556208495,7.263210044144508e-05,0.0008792818725173317
2018-08-28 14:24:33.016000+00:00,2018-08-28 14:24:33.028000+00:00,-0.021901008278258045,-0.05841632518428078,0.0004777966012093765,0.00019744961081338637,5.3330733463715374e-05,4.374763762174323e-05,0.00021136162617200506,7.272123528607002e-05,0.0008628093595407992
2018-08-28 14:24:34.015000+00:00,2018-08-28 14:24:34.026000+00:00,-0.02392807515707687,-0.057664428279112764,0.004154338289440094,0.00020322103164962046,5.375287757412436e-05,4.4222061407300534e-05,0.00021872469167625737,7.394852124346192e-05,0.0008817417064281857
2018-08-28 14:24:35.016000+00:00,2018-08-28 14:24:35.027000+00:00,-0.021713599826527652,-0.0527044926599799,-0.001342593326202176,0.0001976159919370678,5.3245424038493164e-05,4.3288486486582514e-05,0.0002114735824410167,7.303965047657837e-05,0.0008645062700173743
2018-08-28 14:24:36.016000+00:00,2018-08-28 14:24:36.027000+00:00,-0.026219885708234046,-0.0483389180206086,-0.00882866552686544,0.00020338799033655465,5.36654154916765e-05,4.376374211281008e-05,0.0002188358745801711,7.427182753141616e-05,0.0008834363097771865
2018-08-28 14:24:37.016000+00:00,2018-08-28 14:24:37.028000+00:00,-0.039340173110230844,-0.04395274177125783,-0.01859291129809863,0.00019766441440573028,5.326818301836453e-05,4.3413453266200085e-05,0.00021156433986165718,7.319426362578505e-05,0.0008647440138363165
2018-08-28 14:24:38.016000+00:00,2018-08-28 14:24:38.027000+00:00,-0.04373317950708561,-0.04254927534998547,-0.0166389808368748,0.0002034369612229564,5.368600787475989e-05,4.388953289110136e-05,0.0002189258366988611,7.443138575645859e-05,0.0008836717684470903
2018-08-28 14:24:39.015000+00:00,2018-08-28 14:24:39.027000+00:00,-0.029012805418469394,-0.04120705098871634,-0.02328386953238695,0.0001976723139174243,5.323915514031621e-05,4.3525785452954916e-05,0.00021158632854558732,7.334204370330183e-05,0.0008648695109915007
2018-08-28 14:24:40.015000+00:00,2018-08-28 14:24:40.028000+00:00,-0.03586024576209757,-0.04313028724210004,-0.017588642593286182,0.0002034454440685293,5.36548060415874e-05,4.40026906130635e-05,0.00021894702600869264,7.45841073977535e-05,0.000883794978713075
2018-08-28 14:24:41.016000+00:00,2018-08-28 14:24:41.026000+00:00,-0.018690163370163895,-0.048389295546267794,-0.00439501391071892,0.00019767858458501095,5.3204298330384336e-05,4.366119374937089e-05,0.0002115962689891227,7.351777406075548e-05,0.0008650192208178126
2018-08-28 14:24:42.015000+00:00,2018-08-28 14:24:42.028000+00:00,-0.023316796990787668,-0.053979030781417414,0.011690541733173274,0.00020345229229936862,5.361779092151772e-05,4.4138934716985985e-05,0.00021895617143178795,7.476474175799775e-05,0.0008839423739633245
2018-08-28 14:24:43.016000+00:00,2018-08-28 14:24:43.028000+00:00,-0.008484606298356404,-0.058314370482444304,0.016869041544391707,0.00019773479489792868,5.3229689586190885e-05,4.383368033478749e-05,0.00021168181464819474,7.372629946070263e-05,0.0008653245287854686
2018-08-28 14:24:44.016000+00:00,2018-08-28 14:24:44.028000+00:00,-0.01436039748417761,-0.06212882065238562,0.02271065363002437,0.00020350905103002568,5.364101742871861e-05,4.4312244004145494e-05,0.0002190409131586156,7.497818837548802e-05,0.0008842454345160662
2018-08-28 14:24:45.015000+00:00,2018-08-28 14:24:45.031000+00:00,-0.016568749008141925,-0.05401090589924158,0.00968720204676193,0.00019782585579464042,5.329422852121846e-05,4.4068512571964635e-05,0.000211812672750416,7.40042692519492e-05,0.0008657809909706517
2018-08-28 14:24:46.016000+00:00,2018-08-28 14:24:46.027000+00:00,-0.020139439494653015,-0.05439448119766133,0.010933815191551639,0.00020360066904209886,5.370338491367929e-05,4.4547889393195056e-05,0.00021917094495782334,7.526108897917925e-05,0.0008846996338556519
2018-08-28 14:24:47.015000+00:00,2018-08-28 14:24:47.026000+00:00,-0.018277368963661878,-0.04473678764637465,-0.013836598732167471,0.00019782394166930698,5.324194227142009e-05,4.424924755798006e-05,0.0002117896024917023,7.42416485255216e-05,0.0008659581301803268
2018-08-28 14:24:48.015000+00:00,2018-08-28 14:24:48.029000+00:00,-0.02354300419920168,-0.047897198914012354,-0.009832701983109624,0.00020359931203212684,5.3648927213813946e-05,4.472943753108311e-05,0.00021914706789707093,7.550338538071414e-05,0.0008848745198225847
2018-08-28 14:24:49.016000+00:00,2018-08-28 14:24:49.029000+00:00,-0.02098804315730914,-0.03246399727862139,-0.026947076766626818,0.00019750224062185874,5.294923231220338e-05,4.494390805293938e-05,0.0002111681429808904,7.428130083798e-05,0.0008647017978556495
2018-08-28 14:24:50.015000+00:00,2018-08-28 14:24:50.026000+00:00,-0.026834244532833985,-0.03201361254047258,-0.02631740346296825,0.0002029262008271944,5.30730581191305e-05,4.592017970669887e-05,0.00021787298401456764,7.53436937281781e-05,0.0008820782853106906
2018-08-28 14:24:51.015000+00:00,2018-08-28 14:24:51.026000+00:00,-0.02725130834777542,-0.031034275514636552,-0.024403431996058295,0.00019685289760937137,5.242056963924275e-05,4.603303967532201e-05,0.00020997273697895372,7.399984645893088e-05,0.0008618600734669477
2018-08-28 14:24:52.016000+00:00,2018-08-28 14:24:52.028000+00:00,-0.03156265605789307,-0.029587620765249754,-0.021578781705425494,0.0002022779924937658,5.254306087237387e-05,4.701009332061041e-05,0.00021667856633075306,7.506769605344487e-05,0.0008792347580669428
2018-08-28 14:24:53.015000+00:00,2018-08-28 14:24:53.031000+00:00,-0.026023141629817104,-0.03266109831581147,-0.01571079054450784,0.0001962291431755517,5.179978814413638e-05,4.74047158013224e-05,0.00020872953231836983,7.384765667068976e-05,0.0008591977780503525
2018-08-28 14:24:54.016000+00:00,2018-08-28 14:24:54.026000+00:00,-0.024701054154499684,-0.032411774600249126,-0.02265442949235362,0.00020210129274816682,5.2188737207163725e-05,4.8017561982678815e-05,0.00021612626656637425,7.508621944230442e-05,0.0008782978252177467
2018-08-28 14:24:55.016000+00:00,2018-08-28 14:24:55.031000+00:00,-0.018011985059433928,-0.03809821261929562,-0.0107455450814597,0.0001972746179318594,5.24702519690945e-05,4.702136557165393e-05,0.00021032585907030743,7.458028571657825e-05,0.0008633815523799726
2018-08-28 14:24:56.015000+00:00,2018-08-28 14:24:56.028000+00:00,-0.022251789074078928,-0.040608764160394994,-0.010611113759655325,0.0002031473448164253,5.2856986868230036e-05,4.763497998899578e-05,0.00021772167951583632,7.582379288345283e-05,0.0008824792002778286
2018-08-28 14:24:57.016000+00:00,2018-08-28 14:24:57.030000+00:00,-0.0227392115693519,-0.04233480182627335,-0.00803901328079338,0.0001982524088507673,5.3061924817099636e-05,4.657450905977756e-05,0.0002118242061156661,7.52487574397126e-05,0.0008673242351191084
2018-08-28 14:24:58.015000+00:00,2018-08-28 14:24:58.029000+00:00,-0.011626058406211896,-0.044973329170489844,-0.005150261626594283,0.00020412566943352222,5.3446465265053064e-05,4.7188895759605335e-05,0.00021921910235405434,7.649723106710438e-05,0.000886419479558192
2018-08-28 14:24:59.015000+00:00,2018-08-28 14:24:59.031000+00:00,-0.00770871048763512,-0.04376968395303524,-0.006261549942084214,0.00020999920257317234,5.382989246795136e-05,4.7803631899671575e-05,0.00022661352307596624,7.774816528292156e-05,0.0009055136172844863
2018-08-28 14:25:00.016000+00:00,2018-08-28 14:25:00.031000+00:00,-0.023786794303866817,-0.046626420481220746,0.002790221488032523,0.0002045882628804232,5.3812211138989856e-05,4.670579698154613e-05,0.00022002087086700744,7.674351032869862e-05,0.0008882165786279123
2018-08-28 14:25:01.015000+00:00,2018-08-28 14:25:01.029000+00:00,-0.013571574337101775,-0.04548436509951188,-0.0005520460941668588,0.00019846738399490637,5.3240134380727e-05,4.673900876329821e-05,0.00021216007687532482,7.546856546131246e-05,0.0008679926359846344
2018-08-28 14:25:02.016000+00:00,2018-08-28 14:25:02.027000+00:00,-0.01771686235855681,-0.04949009063688723,0.00019358596479889661,0.00020372602506125458,5.3524653095737875e-05,4.735997474235467e-05,0.00021871043112932609,7.691701136052718e-05,0.0008846043460125382
2018-08-28 14:25:03.016000+00:00,2018-08-28 14:25:03.041000+00:00,-0.017966647414173156,-0.04506149399158792,0.0022081207759253804,0.00019761279057076625,5.285346060819905e-05,4.7268256806681926e-05,0.00021106842982476716,7.625405951328465e-05,0.0008656165501828808
2018-08-28 14:25:04.015000+00:00,2018-08-28 14:25:04.028000+00:00,-0.018192267494435876,-0.04703693310172555,0.006684681479766218,0.00020307927300460828,5.277294732890807e-05,4.827990398961922e-05,0.00021794593563669148,7.796067311950238e-05,0.0008843227110556423
2018-08-28 14:25:05.016000+00:00,2018-08-28 14:25:05.026000+00:00,-0.013679440573308268,-0.04768476421686373,0.009006286704861437,0.00019684049237498333,5.194505427635522e-05,4.826441933208168e-05,0.00021009923655336,7.740078819882818e-05,0.0008651749924313418
2018-08-28 14:25:06.016000+00:00,2018-08-28 14:25:06.026000+00:00,-0.02830180316818781,-0.04581294639659037,0.010003570996328308,0.00020230821979429887,5.1863341920476946e-05,4.927662959234425e-05,0.0002169773311341234,7.911181219868025e-05,0.0008838786792655205
2018-08-28 14:25:07.015000+00:00,2018-08-28 14:25:07.027000+00:00,-0.015026497206532695,-0.04733076132139444,0.007275564281351567,0.00019700340316305663,5.1365803958673926e-05,4.877863331390083e-05,0.00021054582861258143,7.857815948754935e-05,0.0008686913359010849
2018-08-28 14:25:08.016000+00:00,2018-08-28 14:25:08.027000+00:00,-0.019684459371790097,-0.050671780252228196,0.013289288921756452,0.00020247232028718077,5.128290331791588e-05,4.9791406076986474e-05,0.0002174244466080933,8.02935283721756e-05,0.0008873924947084539
2018-08-28 14:25:09.015000+00:00,2018-08-28 14:25:09.025000+00:00,-0.021171737104528774,-0.04465250664633713,0.0028068048406154275,0.00019688617530849825,5.118547332230882e-05,4.887166867178702e-05,0.00021038245440534403,7.87181795645159e-05,0.0008685498160059361
2018-08-28 14:25:10.016000+00:00,2018-08-28 14:25:10.027000+00:00,-0.020520786363177113,-0.0420202333025104,0.004215763648639088,0.00020235634034509198,5.110138439667101e-05,4.988500393769571e-05,0.00021726161502131557,8.043792070288003e-05,0.0008872484857884453
2018-08-28 14:25:11.015000+00:00,2018-08-28 14:25:11.026000+00:00,-0.005485635847717228,-0.042366275549266294,-0.0013294190202165594,0.0001969156266087305,5.119062696032989e-05,4.8906953567678496e-05,0.000210460423678096,7.876892231314697e-05,0.0008686660292661816
2018-08-28 14:25:12.015000+00:00,2018-08-28 14:25:12.026000+00:00,0.0019476481189990343,-0.03898762334735463,-0.0038365103270711527,0.0002023870132559105,5.1105322527562654e-05,4.992082456601354e-05,0.00021734018145278618,8.049311571554056e-05,0.0008873623273066067
2018-08-28 14:25:13.016000+00:00,2018-08-28 14:25:13.026000+00:00,0.001913579045581636,-0.03652624253433785,-0.004734640867330379,0.00019695920704182243,5.1200637851171205e-05,4.905485097189596e-05,0.0002105267753037055,7.895210425390252e-05,0.0008689237950014706
2018-08-28 14:25:14.016000+00:00,2018-08-28 14:25:14.026000+00:00,0.0007276292835992244,-0.036696080930248315,-0.003641922427376673,0.00020243181826886983,5.111412407609605e-05,5.0069278510271945e-05,0.00021740719461828072,8.068080248297446e-05,0.0008876178285723473
2018-08-28 14:25:15.015000+00:00,2018-08-28 14:25:15.027000+00:00,0.006453648833947868,-0.035436178709106814,-0.006157215243011134,0.0001970328489105626,5.125664844362604e-05,4.916677716122937e-05,0.0002106631400926627,7.90966993486143e-05,0.0008692089318113336
2018-08-28 14:25:16.016000+00:00,2018-08-28 14:25:16.028000+00:00,0.0017280884963662563,-0.03511523694038968,-0.007799140994344559,0.00020250669625872957,5.116891849610091e-05,5.018172353077219e-05,0.00021754421222698166,8.082995678459674e-05,0.0008879007854030424
2018-08-28 14:25:17.015000+00:00,2018-08-28 14:25:17.040000+00:00,-0.008471837850538465,-0.03993388858307095,-0.013384112370458716,0.0001969058239263076,5.107900668974242e-05,4.9009983619567474e-05,0.0002105188790314952,7.894779197261e-05,0.0008687148744272353
2018-08-28 14:25:18.015000+00:00,2018-08-28 14:25:18.028000+00:00,-0.017588677850003294,-0.036437078341256715,-0.013232691763481066,0.0002023808754064507,5.099006556580447e-05,5.002545593984486e-05,0.0002174005857318605,8.068558260319967e-05,0.0008874045109711259
2018-08-28 14:25:19.016000+00:00,2018-08-28 14:25:19.028000+00:00,-0.027550907046036473,-0.03083381070501448,-0.022927622579273447,0.0001968144931771696,5.092728138570969e-05,4.901627510815645e-05,0.00021038423385996957,7.898129321384355e-05,0.0008684892753145325
2018-08-28 14:25:20.015000+00:00,2018-08-28 14:25:20.027000+00:00,-0.02404118866128891,-0.030720186736976858,-0.02400585949145332,0.00020229076923718007,5.083713842055822e-05,5.00322987047076e-05,0.00021726657612331857,8.072357927643817e-05,0.0008871766733657758
2018-08-28 14:25:21.016000+00:00,2018-08-28 14:25:21.028000+00:00,-0.025135863017273434,-0.03935635198307906,-0.021712700142983966,0.0001968126904221033,5.0883263404441786e-05,4.915812348910907e-05,0.00021038467539040532,7.917073584812109e-05,0.0008686461965129542
2018-08-28 14:25:22.016000+00:00,2018-08-28 14:25:22.029000+00:00,-0.020736757359071864,-0.03359112675601865,-0.026765079072605995,0.00020229017931171203,5.079191006251069e-05,5.0174658222757276e-05,0.00021726760387213008,8.091755530555112e-05,0.0008873313880625972
2018-08-28 14:25:23.015000+00:00,2018-08-28 14:25:23.027000+00:00,-0.0168103974121978,-0.04241661047085388,-0.023341381969786603,0.00019682868024941462,5.0869514728676264e-05,4.9203786949734675e-05,0.00021043406929878306,7.923878140053415e-05,0.0008687150396433313
2018-08-28 14:25:24.016000+00:00,2018-08-28 14:25:24.027000+00:00,-0.01728643244212751,-0.0465051722294683,-0.017435951034375605,0.0002023073790416256,5.077693456534594e-05,5.02208373618183e-05,0.00021731766699484547,8.099014424459502e-05,0.0008873980610377302
2018-08-28 14:25:25.016000+00:00,2018-08-28 14:25:25.027000+00:00,-0.01464337465189272,-0.05088272491661622,-0.004516134339215178,0.00019678724201849267,5.090984420730156e-05,4.9377731186296865e-05,0.00021010560044763368,7.854049129045406e-05,0.0008670877545679705
2018-08-28 14:25:26.015000+00:00,2018-08-28 14:25:26.027000+00:00,-0.011035394776969958,-0.05177271677970294,-0.007510594947641475,0.00020231794700357604,5.101184080027804e-05,5.053620241680164e-05,0.0002168038763725153,7.952448449612836e-05,0.0008843209886829832
2018-08-28 14:25:27.016000+00:00,2018-08-28 14:25:27.032000+00:00,-0.010781043994951875,-0.05043260058180733,-0.008593043701362869,0.000196886329182679,5.1258368222154946e-05,4.974572807191094e-05,0.0002097386222865909,7.711805946192669e-05,0.0008642855989052678
2018-08-28 14:25:28.015000+00:00,2018-08-28 14:25:28.026000+00:00,-0.011028128385987716,-0.04873508397998526,-0.010983604080178525,0.00020241812489959595,5.135903247214002e-05,5.0904856617275674e-05,0.00021643817613746703,7.810767776162325e-05,0.0008815177158271623
2018-08-28 14:25:29.015000+00:00,2018-08-28 14:25:29.028000+00:00,-0.023670167885845615,-0.053745751320668445,-0.006578092928124165,0.00019690673381587905,5.152962536025023e-05,4.98695028149241e-05,0.00020930030700213716,7.541163696218504e-05,0.0008610275211468534
2018-08-28 14:25:30.016000+00:00,2018-08-28 14:25:30.027000+00:00,-0.02576251171929154,-0.05441921066357143,0.0006374800082402168,0.0002024396115670074,5.162896962161735e-05,5.1029294258182805e-05,0.00021600114380316952,7.640688522462147e-05,0.0008782585245490897
2018-08-28 14:25:31.015000+00:00,2018-08-28 14:25:31.025000+00:00,-0.01747781947993865,-0.04861853725949283,-0.002385669199169077,0.00019688386687461969,5.144934042533754e-05,5.006207565348231e-05,0.00020924461326366476,7.566860208642985e-05,0.0008611905411425706
2018-08-28 14:25:32.016000+00:00,2018-08-28 14:25:32.026000+00:00,-0.018390574570942016,-0.04819034312738761,-0.003691625673406102,0.00020241783535758173,5.1547344842618856e-05,5.1222529675368065e-05,0.00021594675396759288,7.666948483756167e-05,0.0008784204013747873
2018-08-28 14:25:33.016000+00:00,2018-08-28 14:25:33.026000+00:00,-0.022782519974376837,-0.04766645781376868,0.0021457671812806535,0.0001968650555076957,5.138425177752577e-05,5.0148019100150845e-05,0.0002092230201726791,7.57910220988338e-05,0.0008612512018664781
2018-08-28 14:25:34.016000+00:00,2018-08-28 14:25:34.026000+00:00,-0.02028490735541464,-0.04878148995700525,-0.001757427827057921,0.00020240008850397388,5.1480924508690776e-05,5.130911935049263e-05,0.0002159264205039805,7.679754305094669e-05,0.000878479931215054
2018-08-28 14:25:35.015000+00:00,2018-08-28 14:25:35.026000+00:00,-0.025292266500988102,-0.043580978826625816,-0.005002216400531636,0.00019684721676867177,5.132461075066272e-05,5.0201909507795726e-05,0.00020921322572088223,7.588014649193714e-05,0.0008612820073748187
2018-08-28 14:25:36.015000+00:00,2018-08-28 14:25:36.026000+00:00,-0.03041905246857827,-0.04443825107497858,-0.0018331873422994562,0.00020238334626740965,5.141993549384994e-05,5.1363656800698426e-05,0.00021591791912549456,7.689231641457776e-05,0.0008785096568199945
2018-08-28 14:25:37.015000+00:00,2018-08-28 14:25:37.026000+00:00,-0.03717998405707525,-0.04442914776841342,-0.0073952888052855326,0.00019685251067882179,5.1269617208161716e-05,5.022730754372618e-05,0.00020929773367682117,7.611661854187927e-05,0.0008616546071670262
2018-08-28 14:25:38.016000+00:00,2018-08-28 14:25:38.026000+00:00,-0.03339256195949327,-0.043835081646702884,-0.0017364407355202859,0.0002023028477235949,5.136197912393066e-05,5.122080251008593e-05,0.00021602967647127788,7.730831692141473e-05,0.0008789971446920869
2018-08-28 14:25:39.015000+00:00,2018-08-28 14:25:39.025000+00:00,-0.025117283496753625,-0.04625853814120039,-4.5317933788421166e-05,0.0001967686588865578,5.123346888452254e-05,5.0126735116816975e-05,0.0002093460121364373,7.63918281850142e-05,0.0008618652400398715
2018-08-28 14:25:40.016000+00:00,2018-08-28 14:25:40.027000+00:00,-0.028907355280986265,-0.04918523229738562,-0.0010808126643194783,0.000202307164459518,5.132601411634226e-05,5.128971409595114e-05,0.0002160534078273878,7.74150648773536e-05,0.0008790911580649893
2018-08-28 14:25:41.016000+00:00,2018-08-28 14:25:41.025000+00:00,-0.0202282982455934,-0.052396674588335794,0.0016217500917984524,0.00019676516406308436,5.119122814138671e-05,5.020495717885268e-05,0.00020935989880168054,7.650773185761457e-05,0.0008619426253507591
2018-08-28 14:25:42.015000+00:00,2018-08-28 14:25:42.027000+00:00,-0.024371157619966364,-0.050752544757337176,0.00076675244956367,0.00020230495497843332,5.128236012230306e-05,5.136848672834083e-05,0.00021606863427430466,7.753648332286492e-05,0.0008791678682084553
2018-08-28 14:25:43.016000+00:00,2018-08-28 14:25:43.027000+00:00,-0.02178424225322595,-0.05241568915472151,-0.0038216886192395452,0.00019678319842261955,5.110495938907853e-05,5.032103363298635e-05,0.00020921702524238976,7.610884984408922e-05,0.0008612970279506642
2018-08-28 14:25:44.016000+00:00,2018-08-28 14:25:44.026000+00:00,-0.02364670589985019,-0.055378225643083354,-0.0002532834049451191,0.00020232421354570028,5.119466167447193e-05,5.148511829416701e-05,0.0002159271252849884,7.714312607404579e-05,0.0008785215737796336
2018-08-28 14:25:45.015000+00:00,2018-08-28 14:25:45.025000+00:00,-0.022864207854967143,-0.048528019586585286,-0.0019388204496327659,0.0001967898840896673,5.1068430121470395e-05,5.046703221756304e-05,0.00020923214158344473,7.630127975644888e-05,0.0008614772065259312
2018-08-28 14:25:46.016000+00:00,2018-08-28 14:25:46.027000+00:00,-0.02495121090051963,-0.05247213537860466,-0.001281880758510781,0.00020233215256599329,5.115671099799103e-05,5.163168379926887e-05,0.00021594358697655337,7.734105336254862e-05,0.0008787010162962948
2018-08-28 14:25:47.015000+00:00,2018-08-28 14:25:47.025000+00:00,-0.018835906274157266,-0.054105256938916164,0.0042599241805515685,0.00019659724024213994,5.081501335983306e-05,5.046313998351796e-05,0.00020900903684274046,7.631217118932713e-05,0.0008610407076468981
2018-08-28 14:25:48.015000+00:00,2018-08-28 14:25:48.028000+00:00,-0.006037060846266819,-0.058269166727630495,-0.0012574256699353324,0.0002020914074166109,5.0707292619347767e-05,5.148576148485202e-05,0.0002159003872372369,7.811717737017838e-05,0.0008796998967801631
2018-08-28 14:25:49.016000+00:00,2018-08-28 14:25:49.030000+00:00,-0.0008267679646543832,-0.06161873071536143,-0.0013333437683048961,0.00019654574383164977,5.054956330024371e-05,5.0353544719382716e-05,0.000209247216925228,7.731679423309245e-05,0.0008628663501241707
2018-08-28 14:25:50.015000+00:00,2018-08-28 14:25:50.041000+00:00,0.0018330766449026186,-0.06405030948912213,-0.0021885960418724787,0.00020200365915886128,5.063345054543289e-05,5.135038328683229e-05,0.00021598677446779598,7.854022984707507e-05,0.0008802044921397811
2018-08-28 14:25:51.016000+00:00,2018-08-28 14:25:51.028000+00:00,-0.009560597114114281,-0.0558927048513072,-0.0014598875813833304,0.00019642219685194056,5.0330477758241904e-05,4.9995683169757336e-05,0.00020948750870194166,7.821427265466854e-05,0.000864382068281315
2018-08-28 14:25:52.016000+00:00,2018-08-28 14:25:52.028000+00:00,-0.01764766307895174,-0.055483187914280745,-0.001985343299904147,0.00020191908557390105,5.022010621551554e-05,5.1019076333913766e-05,0.00021638023377094836,8.002812391847964e-05,0.0008830378305806805
2018-08-28 14:25:53.015000+00:00,2018-08-28 14:25:53.028000+00:00,-0.024489628697469783,-0.045020643971437506,-0.007399387624226511,0.00019657744395103408,5.0462343975960385e-05,4.943171825223894e-05,0.00021005725888702297,7.868551952558661e-05,0.000865884270726672
2018-08-28 14:25:54.016000+00:00,2018-08-28 14:25:54.029000+00:00,-0.03111810701697293,-0.05066619026392953,-0.006597854527324573,0.00020224619220248947,5.077006810508758e-05,5.01991955564358e-05,0.00021704593612016535,7.966873134433717e-05,0.0008834759696349412
2018-08-28 14:25:55.015000+00:00,2018-08-28 14:25:55.028000+00:00,-0.03382133488015163,-0.04599355505919341,0.001270508650254503,0.0001967150510752539,5.072120735676165e-05,4.921080855702743e-05,0.0002102722811113723,7.847001055038291e-05,0.0008658418591069413
2018-08-28 14:25:56.015000+00:00,2018-08-28 14:25:56.028000+00:00,-0.033815277829628544,-0.04242915516076219,0.0007876449802102191,0.00020226360354631842,5.0802349533218835e-05,5.0378217954796936e-05,0.00021699044380572142,7.953736337581996e-05,0.000883062359156868
2018-08-28 14:25:57.015000+00:00,2018-08-28 14:25:57.028000+00:00,-0.03098925737785315,-0.0485690118283174,0.004409169641383253,0.0001966683668521438,5.088830441001383e-05,4.958540781840645e-05,0.00020970541717613882,7.709854282236919e-05,0.0008628411189761848
2018-08-28 14:25:58.016000+00:00,2018-08-28 14:25:58.030000+00:00,-0.029065907076051303,-0.04435048454405865,0.002234236882969153,0.00020221818434335674,5.096801137858663e-05,5.0753404701092225e-05,0.00021642490450575564,7.817143249646581e-05,0.0008800610375349969
2018-08-28 14:25:59.015000+00:00,2018-08-28 14:25:59.029000+00:00,-0.02155962743521337,-0.043347970759132076,0.002519376845851542,0.0001963031938504945,5.03341548895579e-05,5.063976938043745e-05,0.00020873907761013164,7.686111019237373e-05,0.0008609267686444932
2018-08-28 14:26:00.016000+00:00,2018-08-28 14:26:00.034000+00:00,-0.025819034787574472,-0.039727735790320434,0.001993475802741177,0.00020193775006188707,5.048590266733665e-05,5.170348171991052e-05,0.00021578678592169327,7.821969229355655e-05,0.000878806174549681
2018-08-28 14:26:01.015000+00:00,2018-08-28 14:26:01.031000+00:00,-0.024680888870137536,-0.036286073855460746,-0.015104692504952312,0.000196554650145324,5.041769080160818e-05,5.0549973325878466e-05,0.00020944555896540814,7.7385420338967e-05,0.0008624212652678238
2018-08-28 14:26:02.016000+00:00,2018-08-28 14:26:02.027000+00:00,-0.02482139454232896,-0.036289842351599606,-0.014927342923337675,0.0002021903132683652,5.056761919567179e-05,5.1614139530496055e-05,0.00021649361620216113,7.874903027650328e-05,0.0008802998265166112
2018-08-28 14:26:03.016000+00:00,2018-08-28 14:26:03.026000+00:00,-0.02230512700355696,-0.035485985365224446,-0.015090231990061596,0.00019671195100785197,5.051076588102076e-05,5.0428233976516966e-05,0.00021009689358715192,7.807383751473119e-05,0.00086384530103321
2018-08-28 14:26:04.015000+00:00,2018-08-28 14:26:04.042000+00:00,-0.026168029601669005,-0.0392158002709745,-0.011275707851768412,0.0002023486861264024,5.065888975079993e-05,5.149284724597836e-05,0.00021714525834336812,7.944248309048731e-05,0.0008817230357398037
2018-08-28 14:26:05.016000+00:00,2018-08-28 14:26:05.027000+00:00,-0.025408446737603597,-0.04877787278705019,-0.01036287384745187,0.00019695115746206607,5.070694256420729e-05,5.0238998395630766e-05,0.00021060855914109742,7.828902412716874e-05,0.0008648233420733326
2018-08-28 14:26:06.015000+00:00,2018-08-28 14:26:06.026000+00:00,-0.026047874268103705,-0.04600645603349191,-0.00854865239440536,0.00020260438594404989,5.05534963196502e-05,5.070707733750954e-05,0.00021788946735344634,8.100433542596193e-05,0.0008870582158952559
2018-08-28 14:26:07.015000+00:00,2018-08-28 14:26:07.028000+00:00,-0.01989199342084868,-0.05120089454861608,-0.004276058225736758,0.0001967853754219128,5.015140812094634e-05,4.9905443715789904e-05,0.00021044140717050625,7.973800893163157e-05,0.0008688302272256134
2018-08-28 14:26:08.016000+00:00,2018-08-28 14:26:08.027000+00:00,-0.0218622325751677,-0.046023441942070926,-0.0012023475099155086,0.00020197346925226537,5.032388849693862e-05,5.061902687497318e-05,0.000216901254962905,8.148661500345135e-05,0.0008853177734126393
2018-08-28 14:26:09.015000+00:00,2018-08-28 14:26:09.029000+00:00,-0.023988204894821626,-0.05045452380539589,-0.003229262445082745,0.000195933587753394,5.0224348041506015e-05,4.9359629796629574e-05,0.00020934613948427093,8.067758931738967e-05,0.0008663468937814302
2018-08-28 14:26:10.016000+00:00,2018-08-28 14:26:10.027000+00:00,-0.02521230604037192,-0.05264782227115588,0.001448842222288603,0.0002011227929326119,5.039562649112158e-05,5.007388317046892e-05,0.00021580713794421515,8.243113050534394e-05,0.0008828354957887175
2018-08-28 14:26:11.016000+00:00,2018-08-28 14:26:11.027000+00:00,-0.019017481154369468,-0.05068498994122454,0.004236305725862637,0.00019527501586757891,5.005348739158171e-05,5.004560737117804e-05,0.00020819969887592138,7.955975869919634e-05,0.0008603796701444635
2018-08-28 14:26:12.015000+00:00,2018-08-28 14:26:12.027000+00:00,-0.02114392051488235,-0.05037611438240567,0.007233637836195381,0.0002008437989743366,4.987947101187645e-05,5.144086351995951e-05,0.00021508099220957192,8.065061089348037e-05,0.0008781193171789601
2018-08-28 14:26:13.016000+00:00,2018-08-28 14:26:13.026000+00:00,-0.03036247026684326,-0.056821021691690385,0.014881712279359402,0.00019582291797369945,4.9623022971040206e-05,5.1175867162436595e-05,0.00020892120264818018,7.897968518838673e-05,0.0008624614248240245
2018-08-28 14:26:14.015000+00:00,2018-08-28 14:26:14.027000+00:00,-0.02577388073112557,-0.059538267374480286,0.018116081106500256,0.00020130402976760344,4.9579535001884144e-05,5.23996867128972e-05,0.00021560823826525984,8.033040096618038e-05,0.0008798688809614783
2018-08-28 14:26:15.015000+00:00,2018-08-28 14:26:15.027000+00:00,-0.025674191829100454,-0.05380221242321164,0.018145550422981306,0.00019642468240884252,4.918222755485945e-05,5.2334166911310664e-05,0.00020940928853297385,7.834077160165706e-05,0.0008645414764059439
2018-08-28 14:26:16.016000+00:00,2018-08-28 14:26:16.025000+00:00,-0.024116249789235166,-0.05223834715268172,0.014399670371272958,0.00020190714343885205,4.9137355600875434e-05,5.355845897368793e-05,0.00021609749247827436,7.969675308629485e-05,0.0008819482485203899
2018-08-28 14:26:17.015000+00:00,2018-08-28 14:26:17.025000+00:00,-0.03230923188410564,-0.04163421471040474,-0.0007304710126607265,0.00019629928636375783,4.946528853580297e-05,5.2153558331462e-05,0.00020910440229192508,7.905928630277319e-05,0.0008642043197867636
2018-08-28 14:26:18.015000+00:00,2018-08-28 14:26:18.039000+00:00,-0.04046799353353251,-0.03967340151562031,-0.006693448933994539,0.00020178310240049908,4.941903760710552e-05,5.3378298139086474e-05,0.00021579375941430248,8.042052567607e-05,0.0008816105045702115
2018-08-28 14:26:19.016000+00:00,2018-08-28 14:26:19.027000+00:00,-0.043130967564042846,-0.025306959093421386,-0.028864660239796006,0.00019621441158925397,4.956702313203946e-05,5.1986161224608954e-05,0.00020894764106196473,7.933492884386502e-05,0.0008639117840870251
2018-08-28 14:26:20.015000+00:00,2018-08-28 14:26:20.026000+00:00,-0.03605125080322632,-0.024743741339901055,-0.025653733790802262,0.0002016995593412055,4.9519380217380256e-05,5.321135428085043e-05,0.0002156381259291924,8.070139444566198e-05,0.0008813173429517309
2018-08-28 14:26:21.015000+00:00,2018-08-28 14:26:21.027000+00:00,-0.025734765459328887,-0.03433532656967837,-0.022775755819331008,0.00019565940171577782,4.9711295087120726e-05,5.2077105162827756e-05,0.0002088022091436217,7.942315431151296e-05,0.0008639610858800357
2018-08-28 14:26:22.016000+00:00,2018-08-28 14:26:22.029000+00:00,-0.024296660341449203,-0.03675951708316827,-0.02029235567526251,0.00020062240942951754,4.9891224998457745e-05,5.332847125283011e-05,0.00021539369288075427,8.078364752630408e-05,0.0008813648184221221
2018-08-28 14:26:23.015000+00:00,2018-08-28 14:26:23.033000+00:00,-0.019983460534096435,-0.05032704660471424,-0.0009100053615888684,0.00019523257705989853,5.000530610101303e-05,5.210760988655838e-05,0.00020883524588974594,7.94460251729161e-05,0.0008642314735486542
2018-08-28 14:26:24.016000+00:00,2018-08-28 14:26:24.029000+00:00,-0.020320104684859504,-0.05133346496050647,0.0016951603529959149,0.00020082941988711843,4.997196110357136e-05,5.307069142815817e-05,0.00021586248506977313,8.124572564140208e-05,0.0008829189803689278
2018-08-28 14:26:25.015000+00:00,2018-08-28 14:26:25.027000+00:00,-0.02369438401687847,-0.05255623164723027,0.00034598652749181363,0.00019546910789337778,5.001878534773163e-05,5.167340112813149e-05,0.00020954336341796624,8.041250956278891e-05,0.000866964094165163
2018-08-28 14:26:26.015000+00:00,2018-08-28 14:26:26.027000+00:00,-0.025495904465407213,-0.04628191826741902,-0.001065327996414199,0.00020106724743268947,4.998401313834559e-05,5.2636925948384945e-05,0.00021657118785706534,8.221664923843371e-05,0.0008856500100525772
2018-08-28 14:26:27.015000+00:00,2018-08-28 14:26:27.029000+00:00,-0.039154589992588876,-0.039843911712788116,-0.01416725056723134,0.0001967888359957203,4.9617721398472706e-05,5.125347499377087e-05,0.00021050306816724405,8.148435918687045e-05,0.0008698523374494403
2018-08-28 14:26:28.015000+00:00,2018-08-28 14:26:28.027000+00:00,-0.045452678350511436,-0.03637628223571235,-0.017803401113714055,0.00020238830139263726,4.958154526598137e-05,5.221744437397611e-05,0.00021753136769019825,8.329291926072895e-05,0.0008885366561222074
2018-08-28 14:26:29.015000+00:00,2018-08-28 14:26:29.027000+00:00,-0.03693806840754452,-0.02969912921002927,-0.031045636966102845,0.00019695037297959728,4.967625235717256e-05,5.091268377903875e-05,0.00021097177391089458,8.180814871170864e-05,0.0008710950135232949
2018-08-28 14:26:30.016000+00:00,2018-08-28 14:26:30.027000+00:00,-0.03311804254318756,-0.03313009602533388,-0.02472901697557242,0.0002027687791800168,5.001996932110717e-05,5.1840151308969496e-05,0.00021805743568014527,8.270179472784215e-05,0.0008885891688699215
2018-08-28 14:26:31.015000+00:00,2018-08-28 14:26:31.028000+00:00,-0.023159578791294287,-0.04025267734703264,-0.008022188293152384,0.0001974180032392238,5.0427973441368654e-05,5.1023120438904214e-05,0.00021112508591926584,8.020213503295381e-05,0.0008690324421174534
2018-08-28 14:26:32.016000+00:00,2018-08-28 14:26:32.026000+00:00,-0.02672472772089235,-0.042241242871666154,-0.005552591754218617,0.000203237365817226,5.0769968740844366e-05,5.1951316344183926e-05,0.00021821164937322013,8.110138963690779e-05,0.0008865259326588425
2018-08-28 14:26:33.016000+00:00,2018-08-28 14:26:33.026000+00:00,0.00036945306536497434,-0.047455350135460955,-0.003056259888996559,0.000197852547685124,5.114321746147934e-05,5.107227028873146e-05,0.00021123827227729358,7.852819456248767e-05,0.0008668223878293281
2018-08-28 14:26:34.015000+00:00,2018-08-28 14:26:34.028000+00:00,0.0007583447076514888,-0.04820459637295909,-0.0019959404118039085,0.0002036728957862224,5.1483497534964056e-05,5.200120767512382e-05,0.00021832578532970533,7.943301317054583e-05,0.0008843151656100429
2018-08-28 14:26:35.016000+00:00,2018-08-28 14:26:35.026000+00:00,-0.011158935363266724,-0.04800045768961683,-0.003396294934734461,0.00019792757319797498,5.1296915630713595e-05,5.1363187353888225e-05,0.00021106903757040039,7.802847823639645e-05,0.0008658072754216815
2018-08-28 14:26:36.015000+00:00,2018-08-28 14:26:36.026000+00:00,-0.014760671100505666,-0.04632278411917319,-0.008090196097532611,0.00020374889214490435,5.163544419219727e-05,5.229283855722727e-05,0.00021815749056193913,7.89389346138733e-05,0.000883299393882148
2018-08-28 14:26:37.015000+00:00,2018-08-28 14:26:37.028000+00:00,-0.017657943668909257,-0.04560902574374742,-0.018035116023266715,0.0001980275096147825,5.1377803071219726e-05,5.154769447927434e-05,0.0002112397983589999,7.825542806803453e-05,0.0008662396394486177
2018-08-28 14:26:38.016000+00:00,2018-08-28 14:26:38.026000+00:00,-0.02284260701577497,-0.04676146282467106,-0.014997013366430539,0.00020384978493929467,5.1714609968244533e-05,5.2478074057962435e-05,0.00021832915303524205,7.917149303333172e-05,0.0008837310931038467
2018-08-28 14:26:39.015000+00:00,2018-08-28 14:26:39.026000+00:00,-0.031200161276323135,-0.04150535789687304,-0.007778565398823885,0.00019806551170995602,5.138259745168831e-05,5.164642226951151e-05,0.00021131437076921708,7.838589343499248e-05,0.0008664660372565565
2018-08-28 14:26:40.016000+00:00,2018-08-28 14:26:40.026000+00:00,-0.03547145068584715,-0.042054959828864466,-0.006882677999204778,0.000203888752109673,5.171766848169849e-05,5.2577525937445364e-05,0.00021840466973824469,7.9307558608721e-05,0.0008839568039046746
2018-08-28 14:26:41.015000+00:00,2018-08-28 14:26:41.029000+00:00,-0.03516720460412118,-0.04163184826996575,-0.001394731988432412,0.00019814209968547925,5.143949987259498e-05,5.1770447445146554e-05,0.0002114606659022104,7.85447753641751e-05,0.0008667756960377374
2018-08-28 14:26:42.015000+00:00,2018-08-28 14:26:42.028000+00:00,-0.046285662494276764,-0.04121473597025211,0.005198040310189582,0.00020396629938977502,5.177285437694157e-05,5.270228288076353e-05,0.00021855179875221974,7.947202389117189e-05,0.0008842657754458522
2018-08-28 14:26:43.016000+00:00,2018-08-28 14:26:43.029000+00:00,-0.0390365399296755,-0.04293969217459302,0.008577426892892218,0.00019811860421818121,5.137754934322323e-05,5.1749671047651605e-05,0.0002114625963699379,7.853977218230912e-05,0.0008667363467201621
2018-08-28 14:26:44.015000+00:00,2018-08-28 14:26:44.028000+00:00,-0.043364814579333666,-0.0462716411103702,0.014301859015988426,0.00020394377476830794,5.170915983666326e-05,5.2682215036448224e-05,0.0002185546626831477,7.947263539956952e-05,0.0008842258023877853
2018-08-28 14:26:45.015000+00:00,2018-08-28 14:26:45.029000+00:00,-0.03312739835011248,-0.04982151784928088,0.018244300546409013,0.00019808060549914025,5.12846019515986e-05,5.1844401642201946e-05,0.00021140810381570086,7.867011465359459e-05,0.0008668068354976146
2018-08-28 14:26:46.016000+00:00,2018-08-28 14:26:46.028000+00:00,-0.025128971060905378,-0.05180733471341475,0.01669438326251759,0.00020390674112447191,5.1614478426206364e-05,5.277766842331339e-05,0.00021850106678945246,7.960858158995767e-05,0.0008842956226865401
2018-08-28 14:26:47.015000+00:00,2018-08-28 14:26:47.029000+00:00,-0.011119779934142461,-0.04632276711363184,0.0031890467595268174,0.00019779594708497824,5.094236248412371e-05,5.226058699754518e-05,0.0002111070323801388,7.91317657889079e-05,0.0008665402887762439
2018-08-28 14:26:48.016000+00:00,2018-08-28 14:26:48.028000+00:00,-0.009715325150871965,-0.04986904957090454,0.005611353062155974,0.00020338803008716107,5.085644643542597e-05,5.323654549851137e-05,0.00021808423450508162,8.1004373404939e-05,0.0008852123358299163
2018-08-28 14:26:49.016000+00:00,2018-08-28 14:26:49.028000+00:00,-0.006806640403713055,-0.040140942145202425,-0.014245786582205364,0.00019732981636541477,5.007491670078069e-05,5.241507574731358e-05,0.00021088931400238108,8.108229007330132e-05,0.0008690217068578947
2018-08-28 14:26:50.015000+00:00,2018-08-28 14:26:50.030000+00:00,-0.010024075409178962,-0.037855369336368454,-0.0158928225162938,0.00020292319290139138,4.998751973195322e-05,5.3391401451398075e-05,0.00021786685133483408,8.295933052770125e-05,0.0008876922997932458
2018-08-28 14:26:51.015000+00:00,2018-08-28 14:26:51.028000+00:00,-0.01675688720742116,-0.025219351486455262,-0.030133902567956974,0.0001968369665765789,4.917053926713894e-05,5.259600859872077e-05,0.00021061750834852508,8.307345737167175e-05,0.0008714946989407358
2018-08-28 14:26:52.016000+00:00,2018-08-28 14:26:52.028000+00:00,-0.017574751326330778,-0.02948116826036691,-0.027948766018180513,0.0002024316046572058,4.90816738753134e-05,5.357270336172411e-05,0.0002175953756598393,8.495486788850004e-05,0.0008901638458717278
2018-08-28 14:26:53.015000+00:00,2018-08-28 14:26:53.027000+00:00,-0.025974301739248647,-0.03241061123584259,-0.018443435762512644,0.0001969408808364175,4.9071177334342826e-05,5.2492860737569555e-05,0.0002108867854968541,8.388890524171921e-05,0.0008734267637353853
2018-08-28 14:26:54.016000+00:00,2018-08-28 14:26:54.029000+00:00,-0.03362463469245845,-0.037290197484719304,-0.009882802298745596,0.0002025367891593169,4.898083496987559e-05,5.346991630655244e-05,0.0002178650080485038,8.577469190520592e-05,0.0008920944307029214
2018-08-28 14:26:55.015000+00:00,2018-08-28 14:26:55.028000+00:00,-0.03228566360548593,-0.04955662489310156,0.012321308308357952,0.00019704734294120885,4.9163276409881356e-05,5.2632595837479176e-05,0.0002110726456409479,8.405703621594627e-05,0.0008737972812251522
2018-08-28 14:26:56.015000+00:00,2018-08-28 14:26:56.027000+00:00,-0.0341585446554042,-0.05262496764434746,0.010886946530496523,0.00020264453902727592,4.907146311735876e-05,5.361003284871566e-05,0.00021805118609842397,8.594723106215878e-05,0.0008924634589390163
2018-08-28 14:26:57.016000+00:00,2018-08-28 14:26:57.028000+00:00,-0.03351348486253682,-0.05310455030452382,0.009716443205051682,0.00019696780782724814,4.911259048487777e-05,5.283301950549844e-05,0.00021088382804385203,8.381127952145881e-05,0.0008729556429464193
2018-08-28 14:26:58.015000+00:00,2018-08-28 14:26:58.027000+00:00,-0.03645384625305007,-0.05668397724606801,0.008534252520752902,0.00020248328164293393,4.901588826550604e-05,5.4025061191483736e-05,0.0002176821972890247,8.546340464302723e-05,0.0008907174072412449
2018-08-28 14:26:59.016000+00:00,2018-08-28 14:26:59.028000+00:00,-0.020520500348808056,-0.049807976846901435,-0.008999118178214329,0.00019694206969951347,4.9238478726109324e-05,5.350687948213904e-05,0.00021075796880297545,8.363040392700053e-05,0.0008717080736658233
2018-08-28 14:27:00.016000+00:00,2018-08-28 14:27:00.029000+00:00,-0.025590776103106755,-0.05028427135161815,-0.00662031567835733,0.0002024588984796458,4.91403886798079e-05,5.469935698998861e-05,0.000217557144873693,8.528761094851115e-05,0.0008894693641928241
2018-08-28 14:27:01.015000+00:00,2018-08-28 14:27:01.029000+00:00,-0.018020546432750955,-0.04277713355459316,-0.014965883187449487,0.00019667663864435464,4.906669485777758e-05,5.3842819056375177e-05,0.00021025393038245725,8.30473232058991e-05,0.0008696442270388763
2018-08-28 14:27:02.015000+00:00,2018-08-28 14:27:02.027000+00:00,-0.02030828191963615,-0.0411892377609287,-0.012760482426116573,0.00020219481356566042,4.896719858558675e-05,5.503570616678094e-05,0.0002170538870861424,8.470961627601262e-05,0.0008874050206062415
2018-08-28 14:27:03.015000+00:00,2018-08-28 14:27:03.028000+00:00,-0.020759356905722226,-0.04182875963700732,-0.001395515047339379,0.00019666138820811644,4.901323217395939e-05,5.3970765443918454e-05,0.00021026409706932935,8.320977850894665e-05,0.0008697656096947475
2018-08-28 14:27:04.015000+00:00,2018-08-28 14:27:04.027000+00:00,-0.022868171061827508,-0.04316297860667791,-0.0011774705058769479,0.00020218092679149087,4.891234137337763e-05,5.516407882631818e-05,0.00021706485772876504,8.487714938942202e-05,0.0008875259236664598
2018-08-28 14:27:05.016000+00:00,2018-08-28 14:27:05.027000+00:00,-0.023779223923919502,-0.04549454260785384,0.001427452770151976,0.00019631571009036947,4.921661372611196e-05,5.343623923456881e-05,0.0002099240447737038,8.381004852389977e-05,0.0008687293246676561
2018-08-28 14:27:06.015000+00:00,2018-08-28 14:27:06.027000+00:00,-0.026325080288254747,-0.047365388081854434,0.000707685272140747,0.0002015292173462639,4.9410578565420775e-05,5.4062326613635834e-05,0.00021644001142875885,8.602972003695118e-05,0.0008854406377479749
2018-08-28 14:27:07.015000+00:00,2018-08-28 14:27:07.027000+00:00,-0.022107331127530386,-0.0495159899248656,-0.0030070443835826556,0.00019581629656873062,4.9901020303708126e-05,5.2609131299181363e-05,0.00020952303468243914,8.529119971533821e-05,0.0008672415170571104
2018-08-28 14:27:08.016000+00:00,2018-08-28 14:27:08.027000+00:00,-0.02763545979638616,-0.04643987945497819,-0.003831228565669857,0.00020133847512306808,4.979731900568768e-05,5.3803294647339865e-05,0.0002163254075886883,8.696874853615378e-05,0.0008850008384400576
2018-08-28 14:27:09.015000+00:00,2018-08-28 14:27:09.031000+00:00,-0.013211529144928211,-0.04428146959760974,-0.01662258563528104,0.0001957652473314583,4.979423837384605e-05,5.261562633962144e-05,0.0002094530403960554,8.531114099447702e-05,0.0008671917501998159
2018-08-28 14:27:10.016000+00:00,2018-08-28 14:27:10.027000+00:00,-0.01751572037027349,-0.04570544584183616,-0.01808186989386491,0.0002012887720269692,4.9689119544112e-05,5.381020722400846e-05,0.00021625618962653752,8.699377430562065e-05,0.0008849505789318622
2018-08-28 14:27:11.016000+00:00,2018-08-28 14:27:11.027000+00:00,-0.017915074281840707,-0.047705646025600845,-0.012191222939495698,0.00019642614073791978,4.921949517651283e-05,5.38685161948965e-05,0.00021011681961607867,8.437118104475164e-05,0.0008695305804397335
2018-08-28 14:27:12.015000+00:00,2018-08-28 14:27:12.029000+00:00,-0.017142085681774204,-0.0489801876578579,-0.011489037274107734,0.00020195100287698193,4.9112984323445086e-05,5.506351096794273e-05,0.00021692072637242136,8.605889509940553e-05,0.0008872889440168734
2018-08-28 14:27:13.016000+00:00,2018-08-28 14:27:13.026000+00:00,-0.019166435570466763,-0.05816743430787834,0.002312777355189425,0.00019670080701312927,4.8885677676484336e-05,5.4586508728304676e-05,0.00021033135777016545,8.377108135497344e-05,0.0008702514550731674
2018-08-28 14:27:14.015000+00:00,2018-08-28 14:27:14.034000+00:00,-0.023791562467651527,-0.0570346457067919,0.004192430978022393,0.00020221011207608187,4.8806462769714727e-05,5.5866576683831205e-05,0.00021708722574119936,8.53199525675918e-05,0.0008875849067175094
2018-08-28 14:27:15.015000+00:00,2018-08-28 14:27:15.028000+00:00,-0.021513464999287395,-0.05327675932220313,0.009296700542986966,0.00019670064369044788,4.893869103946399e-05,5.488734242273447e-05,0.00021028960776430194,8.365402771887896e-05,0.0008696636488221198
2018-08-28 14:27:16.016000+00:00,2018-08-28 14:27:16.029000+00:00,-0.02421364170437224,-0.05368538245292138,0.010317770988171413,0.00020254625512368757,4.922697038905437e-05,5.57967787877153e-05,0.0002174527336442033,8.47995615395323e-05,0.0008874079978300345
2018-08-28 14:27:17.015000+00:00,2018-08-28 14:27:17.033000+00:00,-0.01948610002660349,-0.04907665190421708,0.00497461066644872,0.00019705449227591998,4.937571692699048e-05,5.473363375471993e-05,0.0002106626416329697,8.303692440144936e-05,0.0008694512638827941
2018-08-28 14:27:18.016000+00:00,2018-08-28 14:27:18.026000+00:00,-0.018092592702972726,-0.0480640701279017,0.005701572291696537,0.00020262086504358088,4.935356630662613e-05,5.595423440802347e-05,0.00021748642834221592,8.453014265797824e-05,0.0008868513196001123
2018-08-28 14:27:19.016000+00:00,2018-08-28 14:27:19.030000+00:00,-0.02707627223845139,-0.03772648900931005,-0.01104468778721176,0.00019719634255320573,4.9495657465584484e-05,5.471188129561495e-05,0.00021086489253187285,8.303806773577523e-05,0.0008698070516214286
2018-08-28 14:27:20.015000+00:00,2018-08-28 14:27:20.029000+00:00,-0.02488256868330597,-0.039074928830044625,-0.010898679829252463,0.00020276397406898935,4.9472016932496024e-05,5.5932916563886115e-05,0.0002176896729389234,8.453686905543733e-05,0.0008872072414069171
2018-08-28 14:27:21.016000+00:00,2018-08-28 14:27:21.030000+00:00,-0.0314568899933608,-0.03700942831343521,-0.01647724950933834,0.00019694908556710855,4.912990964557512e-05,5.490876340941099e-05,0.00021059545480996736,8.35027721468875e-05,0.0008699417876585171
2018-08-28 14:27:22.016000+00:00,2018-08-28 14:27:22.027000+00:00,-0.027216743196412287,-0.03435391174909659,-0.0216682661345748,0.0002026109500000587,4.9167202733900385e-05,5.597139616808717e-05,0.00021757815390158913,8.506077499890454e-05,0.0008878370957930752
2018-08-28 14:27:23.015000+00:00,2018-08-28 14:27:23.027000+00:00,-0.029749144335872967,-0.03605459842120396,-0.01532594084134736,0.00019713825831193464,4.920803238350991e-05,5.473155356659778e-05,0.0002109063339883648,8.379806388954562e-05,0.0008711499559601211
2018-08-28 14:27:24.016000+00:00,2018-08-28 14:27:24.028000+00:00,-0.02947155612547249,-0.037196355509849496,-0.013981055126904653,0.00020282618838235762,4.9189212303254986e-05,5.5652741804885396e-05,0.00021800952494821307,8.567282903667678e-05,0.0008898548256271444
2018-08-28 14:27:25.015000+00:00,2018-08-28 14:27:25.029000+00:00,0.00031773535306605163,-0.042016164778084994,-0.011270093211171475,0.0001973371422958566,4.922148504769927e-05,5.429345601351172e-05,0.0002113363719441108,8.42552041312909e-05,0.0008729932297947699
2018-08-28 14:27:26.015000+00:00,2018-08-28 14:27:26.029000+00:00,0.0005846189448922238,-0.04365799368048681,-0.008270861549709622,0.00020300138752736647,4.925571804043626e-05,5.535705192653633e-05,0.00021832064252671877,8.582395535577898e-05,0.0008908881072032673
2018-08-28 14:27:27.016000+00:00,2018-08-28 14:27:27.029000+00:00,-0.005692491109974151,-0.0508323716269106,0.004116724421807147,0.00019738829942361514,4.923950147621521e-05,5.419354766208288e-05,0.00021142192397998301,8.4147889630175e-05,0.0008730423485886056
2018-08-28 14:27:28.015000+00:00,2018-08-28 14:27:28.027000+00:00,-0.009063418933597467,-0.04708680630668418,0.003028468844855612,0.00020305376861155474,4.927221815674087e-05,5.5257652702652116e-05,0.00021840701642482114,8.572196974861873e-05,0.000890936984615931
2018-08-28 14:27:29.016000+00:00,2018-08-28 14:27:29.027000+00:00,-0.00487474662738181,-0.04711449243891064,0.0027723532018724996,0.00019739488786013273,4.929146469629116e-05,5.4425690008636174e-05,0.00021136809615091362,8.395795161711731e-05,0.0008724397285508889
2018-08-28 14:27:30.016000+00:00,2018-08-28 14:27:30.027000+00:00,-0.008902488217645735,-0.049527898497445634,0.001860885913876887,0.00020324749083476998,4.9567963485443224e-05,5.5340053878720084e-05,0.00021853737241256925,8.51436845984827e-05,0.0008901827808946479
2018-08-28 14:27:31.015000+00:00,2018-08-28 14:27:31.027000+00:00,-0.02737643297430228,-0.04589629209786201,-0.004900679043410586,0.00019752344128670348,4.9425260802300975e-05,5.448439427959212e-05,0.00021148207059546963,8.38273630034111e-05,0.0008724379184614696
2018-08-28 14:27:32.016000+00:00,2018-08-28 14:27:32.027000+00:00,-0.0280267703078039,-0.04913401095050894,-0.002027902341051345,0.00020311365579346775,4.9364958663387454e-05,5.56295282298266e-05,0.0002183645365574214,8.550485976726533e-05,0.0008902495780204736
2018-08-28 14:27:33.015000+00:00,2018-08-28 14:27:33.031000+00:00,-0.035972796974170516,-0.048813868872616295,0.00014234540842862978,0.00019725716103098054,4.909573377472511e-05,5.475228649301576e-05,0.00021104368869214574,8.391961986693356e-05,0.0008718237987510307
2018-08-28 14:27:34.016000+00:00,2018-08-28 14:27:34.028000+00:00,-0.032963508637181144,-0.04979379897624739,-0.0007639103747409254,0.0002030748151085805,4.931105402453678e-05,5.568198901292459e-05,0.0002181242765693355,8.513854472173274e-05,0.0008895615875111999
2018-08-28 14:27:35.016000+00:00,2018-08-28 14:27:35.027000+00:00,-0.03423860856092315,-0.04858206448671985,-0.002242039735289983,0.00019731934425471528,4.911454556796332e-05,5.469918461247384e-05,0.00021096506567022238,8.367113999355999e-05,0.0008717200979370939
2018-08-28 14:27:36.016000+00:00,2018-08-28 14:27:36.028000+00:00,-0.03303547921612476,-0.04636562096650911,-0.0014255254707642682,0.00020313814116772002,4.932838988160078e-05,5.562952547145218e-05,0.00021804699150026054,8.489558560271994e-05,0.0008894579379422595
2018-08-28 14:27:37.016000+00:00,2018-08-28 14:27:37.027000+00:00,-0.022862175599113774,-0.043239711172143314,-0.012287659697300522,0.0001978211759694998,4.968796916599417e-05,5.4393655347634117e-05,0.00021145291354390913,8.291042813482463e-05,0.0008718462010006728
2018-08-28 14:27:38.016000+00:00,2018-08-28 14:27:38.027000+00:00,-0.033881660963107615,-0.039903212445070904,-0.011400092228276417,0.0002036410574268827,4.9900315317244916e-05,5.532461489485285e-05,0.00021853617460940758,8.41404758652977e-05,0.0008895841532592498
2018-08-28 14:27:39.015000+00:00,2018-08-28 14:27:39.028000+00:00,-0.02819126931727971,-0.038600406807679705,-0.023308421774753493,0.0001980783315407051,4.9925299871952906e-05,5.411694585910002e-05,0.00021177075611345983,8.261712421914799e-05,0.0008722315128496673
2018-08-28 14:27:40.016000+00:00,2018-08-28 14:27:40.028000+00:00,-0.025502097776640024,-0.03822159043379146,-0.02058125645849163,0.00020389930339645806,5.0136175097144035e-05,5.5048518978718675e-05,0.0002188552817730018,8.385268488579693e-05,0.0008899695548375891
2018-08-28 14:27:41.016000+00:00,2018-08-28 14:27:41.028000+00:00,-0.02375319622754971,-0.04444527260141173,-0.009197565418004369,0.00019811016233281715,4.992153541705069e-05,5.42372358443063e-05,0.0002118346137793677,8.277621866421944e-05,0.0008724779981263271
2018-08-28 14:27:42.015000+00:00,2018-08-28 14:27:42.050000+00:00,-0.028710923715891512,-0.04464761205852085,-0.005160831841882218,0.00020393223035756623,5.0130909069006855e-05,5.516942279155997e-05,0.0002189204711340723,8.401733493289596e-05,0.0008902161151795095
2018-08-28 14:27:43.016000+00:00,2018-08-28 14:27:43.027000+00:00,-0.01719888001844977,-0.05102025607112158,0.003963832696770336,0.00019811350365579408,4.988553170753497e-05,5.4272581264935366e-05,0.00021186238934859752,8.2828703502989e-05,0.000872577353706058
2018-08-28 14:27:44.015000+00:00,2018-08-28 14:27:44.031000+00:00,-0.01649197378729023,-0.051300191440166835,0.004796280631633034,0.00020393664468366902,5.009344033525957e-05,5.520540614809669e-05,0.00021894954301383563,8.407535028167511e-05,0.0008903155461673392
2018-08-28 14:27:45.015000+00:00,2018-08-28 14:27:45.028000+00:00,-0.00939416762469115,-0.04729248027061408,-0.0008212213043582405,0.0001981490162335602,4.9929165404985406e-05,5.43002527519081e-05,0.00021193456584927276,8.29485979345028e-05,0.0008727121577429821
2018-08-28 14:27:46.016000+00:00,2018-08-28 14:27:46.029000+00:00,-0.016723567077221207,-0.047292265415209075,-0.002423241165188536,0.00020396055958143945,5.015649293984477e-05,5.520718392967825e-05,0.0002189885803858284,8.42444381749904e-05,0.0008903950862514922
2018-08-28 14:27:47.015000+00:00,2018-08-28 14:27:47.027000+00:00,-0.014957345355033057,-0.036573685790908333,-0.016794458054259442,0.00019805222846604406,4.9795872907086945e-05,5.4298646845088656e-05,0.00021176403509933043,8.303684940453215e-05,0.000872615008991631
2018-08-28 14:27:48.016000+00:00,2018-08-28 14:27:48.027000+00:00,-0.01799266196589283,-0.0320858047280613,-0.018793411857236778,0.00020387756183191133,5.000078773761841e-05,5.5232692822822064e-05,0.00021885379804672384,8.429458781878958e-05,0.000890353405691603
2018-08-28 14:27:49.016000+00:00,2018-08-28 14:27:49.029000+00:00,-0.018888856418489468,-0.031909887702205444,-0.026226448487808637,0.00019778765938326646,4.9333969158669574e-05,5.452517719195987e-05,0.00021157226143924947,8.400272113051382e-05,0.0008736273513115349
2018-08-28 14:27:50.015000+00:00,2018-08-28 14:27:51.026000+00:00,-0.020560333528443366,-0.03474390608538183,-0.02415998939338184,0.0002033662883177817,4.914699693361195e-05,5.557243146297989e-05,0.0002185035035462176,8.608022818940139e-05,0.0008922053479528512
2018-08-28 14:27:51.016000+00:00,2018-08-28 14:27:51.054000+00:00,-0.014481907401717228,-0.03852857677550612,-0.01853174831759104,0.0001973715164068702,4.853534283266686e-05,5.494566702471927e-05,0.00021142116604726371,8.572941113612156e-05,0.0008757246944623491
2018-08-28 14:27:52.016000+00:00,2018-08-28 14:27:52.028000+00:00,-0.019187756294699692,-0.04437114011658078,-0.007683622118643346,0.00020295154107475912,4.834713023816103e-05,5.599326298867628e-05,0.00021835323185766557,8.781142523485875e-05,0.0008943019559622114
2018-08-28 14:27:53.015000+00:00,2018-08-28 14:27:53.031000+00:00,-0.011747824911608707,-0.05541430173645817,-0.0017482635308005909,0.00019659099795689677,4.804912847170043e-05,5.469519338391487e-05,0.0002108792464801262,8.801168957824068e-05,0.0008765804234542559
2018-08-28 14:27:54.016000+00:00,2018-08-28 14:27:54.029000+00:00,-0.012766436693549845,-0.05580178239636114,0.0024169398026006074,0.00020200133995480055,4.791880103626737e-05,5.45669364105913e-05,0.0002179310925525381,9.166735003129022e-05,0.0008967689787622666
2018-08-28 14:27:55.015000+00:00,2018-08-28 14:27:55.029000+00:00,-0.02574987444234278,-0.05634689961003052,0.0006585473564329584,0.00019623680920254064,4.811261920536641e-05,5.2356387741591233e-05,0.00021111748942698877,9.117365978910085e-05,0.0008798455783401509
2018-08-28 14:27:56.015000+00:00,2018-08-28 14:27:56.026000+00:00,-0.0350725527099067,-0.060120653629249385,0.002336410704381838,0.00020164819472820648,4.798122889869882e-05,5.222833095396435e-05,0.0002181701950976635,9.483428543726938e-05,0.0009000389535069721
2018-08-28 14:27:57.016000+00:00,2018-08-28 14:27:57.027000+00:00,-0.04701991256539458,-0.05455780397645268,-0.008542779834012155,0.00019601308382296353,4.815663910681592e-05,5.120172731304815e-05,0.00021128481468108345,9.290183670577167e-05,0.0008815737024870682
2018-08-28 14:27:58.016000+00:00,2018-08-28 14:27:58.030000+00:00,-0.04840275344408409,-0.053892304843235345,-0.009844250648926536,0.00020151949683051685,4.796197488500034e-05,5.2149073655687105e-05,0.00021821921522723037,9.499370373591099e-05,0.0009000167678684962
2018-08-28 14:27:59.016000+00:00,2018-08-28 14:27:59.028000+00:00,-0.042520546395877545,-0.05429721784966818,-0.01418932791510857,0.00019637973633569914,4.77965462335428e-05,5.283243628342383e-05,0.0002115246714635087,9.090876316710238e-05,0.0008809280776437734
2018-08-28 14:28:00.016000+00:00,2018-08-28 14:28:00.028000+00:00,-0.040257869622659995,-0.05563497340425152,-0.012574626476412477,0.0002018559485569478,4.7718869688779935e-05,5.263610481164968e-05,0.00021862885053037983,9.451823659559444e-05,0.0009012062310834411
2018-08-28 14:28:01.015000+00:00,2018-08-28 14:28:01.027000+00:00,-0.031912402581771464,-0.05221510540549216,-0.010344310030271666,0.00019647981504661925,4.782823078256618e-05,5.276551323009766e-05,0.0002115765432462436,9.088049286219853e-05,0.0008812123062571734
2018-08-28 14:28:02.016000+00:00,2018-08-28 14:28:02.027000+00:00,-0.02383867106190436,-0.048971826325936156,-0.010096996119392316,0.000201334682481526,4.800802383580239e-05,5.343270760559666e-05,0.00021822434908651072,9.327510016303127e-05,0.0008990061016925263
2018-08-28 14:28:03.015000+00:00,2018-08-28 14:28:03.027000+00:00,-0.014754098919074955,-0.0426088468278118,-0.002386226310576306,0.00019569612977638214,4.8502966154140935e-05,5.250017218427587e-05,0.00021098634375909018,9.12045631242484e-05,0.0008790886672932564
2018-08-28 14:28:04.015000+00:00,2018-08-28 14:28:04.028000+00:00,-0.022986335361254884,-0.04244582537861111,-0.004870767945634312,0.00020133147012160816,4.890368013857054e-05,5.3065631472046346e-05,0.00021786881091985917,9.289734304291389e-05,0.0008961259451352268
2018-08-28 14:28:05.015000+00:00,2018-08-28 14:28:05.028000+00:00,-0.02399950971480826,-0.036881940112216696,-0.006631275431741508,0.00019600730608964942,4.957455719054171e-05,5.3023118765166345e-05,0.00021076005099626921,8.905319273239224e-05,0.0008747261318461097
2018-08-28 14:28:06.015000+00:00,2018-08-28 14:28:06.029000+00:00,-0.036713409560527696,-0.032295746255734656,-0.007641624009524402,0.00020164345223731148,4.997394629499936e-05,5.358935396205909e-05,0.00021764366125502768,9.07511452999558e-05,0.0008917650696626313
2018-08-28 14:28:07.016000+00:00,2018-08-28 14:28:07.029000+00:00,-0.03223230701630279,-0.03265376989279158,-0.01559073203346384,0.00019668692166044244,4.993296866960549e-05,5.404647941525476e-05,0.0002105632695287698,8.706467534182698e-05,0.0008710827963781976
